EESchema Schematic File Version 2
LIBS:demeter-rescue
LIBS:power
LIBS:device
LIBS:switches
LIBS:relays
LIBS:motors
LIBS:transistors
LIBS:conn
LIBS:linear
LIBS:regul
LIBS:74xx
LIBS:cmos4000
LIBS:adc-dac
LIBS:memory
LIBS:xilinx
LIBS:microcontrollers
LIBS:dsp
LIBS:microchip
LIBS:analog_switches
LIBS:motorola
LIBS:texas
LIBS:intel
LIBS:audio
LIBS:interface
LIBS:digital-audio
LIBS:philips
LIBS:display
LIBS:cypress
LIBS:siliconi
LIBS:opto
LIBS:atmel
LIBS:contrib
LIBS:valves
LIBS:LM35
LIBS:PIC16F877A
LIBS:PIC16F877A_bak
LIBS:dk_Addressable_Specialty
LIBS:dk_Alarms_Buzzers_and_Sirens
LIBS:dk_Automotive_Relays
LIBS:dk_Balun
LIBS:dk_Barrel-Audio_Connectors
LIBS:dk_Battery_Holders_Clips_Contacts
LIBS:dk_Capacitive_Touch_Sensors_Proximity_Sensor_ICs
LIBS:dk_Clock-Timing-Clock_Generators_PLLs_Frequency_Synthesizers
LIBS:dk_Clock-Timing-Programmable_Timers_and_Oscillators
LIBS:dk_Clock-Timing-Real_Time_Clocks
LIBS:dk_Coaxial_Connectors_(RF)
LIBS:dk_Current_Transducers
LIBS:dk_Data_Acquisition-ADCs-DACs-Special_Purpose
LIBS:dk_Data_Acquisition-Analog_to_Digital_Converters_(ADC)
LIBS:dk_Data_Acquisition-Digital_Potentiometers
LIBS:dk_Data_Acquisition-Digital_to_Analog_Converters_(DAC)
LIBS:dk_Data_Acquisition-Touch_Screen_Controllers
LIBS:dk_DC_DC_Converters
LIBS:dk_Digital_Isolators
LIBS:dk_Diodes-Bridge_Rectifiers
LIBS:dk_Diodes-Rectifiers-Arrays
LIBS:dk_Diodes-Rectifiers-Single
LIBS:dk_Diodes-Zener-Single
LIBS:dk_Display_Modules-LED_Character_and_Numeric
LIBS:dk_D-Sub_Connectors
LIBS:dk_Embedded-Microcontrollers
LIBS:dk_Encoders
LIBS:dk_Evaluation_Boards-Embedded-MCU_DSP
LIBS:dk_Evaluation_Boards-Sensors
LIBS:dk_Ferrite_Beads_and_Chips
LIBS:dk_Fixed_Inductors
LIBS:dk_Fuses
LIBS:dk_Gas_Sensors
LIBS:dk_Humidity_Moisture_Sensors
LIBS:dk_Image_Sensors_Camera
LIBS:dk_Infrared_UV_Visible_Emitters
LIBS:dk_Inrush_Current_Limiters_(ICL)
LIBS:dk_Interface-Analog_Switches_Multiplexers_Demultiplexers
LIBS:dk_Interface-Analog_Switches-Special_Purpose
LIBS:dk_Interface-Controllers
LIBS:dk_Interface-Drivers_Receivers_Transceivers
LIBS:dk_Interface-I-O_Expanders
LIBS:dk_Interface-Modules
LIBS:dk_Interface-Sensor_and_Detector_Interfaces
LIBS:dk_Interface-Specialized
LIBS:dk_LED_Indication-Discrete
LIBS:dk_LEDs-Circuit_Board_Indicators_Arrays_Light_Bars_Bar_Graphs
LIBS:dk_Linear-Amplifiers-Audio
LIBS:dk_Linear-Amplifiers-Instrumentation_OP_Amps_Buffer_Amps
LIBS:dk_Linear-Comparators
LIBS:dk_Logic-Buffers_Drivers_Receivers_Transceivers
LIBS:dk_Logic-Flip_Flops
LIBS:dk_Logic-Gates_and_Inverters
LIBS:dk_Logic-Multivibrators
LIBS:dk_Logic-Shift_Registers
LIBS:dk_Logic-Signal_Switches_Multiplexers_Decoders
LIBS:dk_Logic-Translators_Level_Shifters
LIBS:dk_Magnetic_Sensors-Compass_Magnetic_Field_(Modules)
LIBS:dk_Magnetic_Sensors-Linear_Compass_(ICs)
LIBS:dk_Magnetic_Sensors-Switches_(Solid_State)
LIBS:dk_Memory
LIBS:dk_Memory_Connectors-PC_Card_Sockets
LIBS:dk_Microphones
LIBS:dk_Modular_Connectors-Jacks
LIBS:dk_Modular_Connectors-Jacks_With_Magnetics
LIBS:dk_Motion_Sensors-Accelerometers
LIBS:dk_Motion_Sensors-IMUs_(Inertial_Measurement_Units)
LIBS:dk_Motion_Sensors-Tilt_Switches
LIBS:dk_Navigation_Switches_Joystick
LIBS:dk_Optical_Sensors-Ambient_Light_IR_UV_Sensors
LIBS:dk_Optical_Sensors-Photo_Detectors-Remote_Receiver
LIBS:dk_Optical_Sensors-Photodiodes
LIBS:dk_Optical_Sensors-Photointerrupters-Slot_Type-Logic_Output
LIBS:dk_Optical_Sensors-Phototransistors
LIBS:dk_Optical_Sensors-Reflective-Analog_Output
LIBS:dk_Optoisolators-Logic_Output
LIBS:dk_Optoisolators-Transistor_Photovoltaic_Output
LIBS:dk_Optoisolators-Triac_SCR_Output
LIBS:dk_Oscillators
LIBS:dk_PMIC-AC_DC_Converters_Offline_Switchers
LIBS:dk_PMIC-Battery_Chargers
LIBS:dk_PMIC-Battery_Management
LIBS:dk_PMIC-Current_Regulation-Management
LIBS:dk_PMIC-Full_Half-Bridge_Drivers
LIBS:dk_PMIC-Gate_Drivers
LIBS:dk_PMIC-LED_Drivers
LIBS:dk_PMIC-Motor_Drivers_Controllers
LIBS:dk_PMIC-OR_Controllers_Ideal_Diodes
LIBS:dk_PMIC-Power_Distribution_Switches_Load_Drivers
LIBS:dk_PMIC-Power_Management-Specialized
LIBS:dk_PMIC-RMS_to_DC_Converters
LIBS:dk_PMIC-Supervisors
LIBS:dk_PMIC-Thermal_Management
LIBS:dk_PMIC-V-F_and_F-V_Converters
LIBS:dk_PMIC-Voltage_Reference
LIBS:dk_PMIC-Voltage_Regulators-DC_DC_Switching_Controllers
LIBS:dk_PMIC-Voltage_Regulators-DC_DC_Switching_Regulators
LIBS:dk_PMIC-Voltage_Regulators-Linear
LIBS:dk_PMIC-Voltage_Regulators-Special_Purpose
LIBS:dk_Power_Relays_Over_2_Amps
LIBS:dk_Pressure_Sensors_Transducers
LIBS:dk_Programmable_Oscillators
LIBS:dk_Pushbutton_Switches
LIBS:dk_Rectangular_Connectors-Headers_Male_Pins
LIBS:dk_Reed_Relays
LIBS:dk_Resistor_Networks_Arrays
LIBS:dk_RF_Amplifiers
LIBS:dk_RF_Antennas
LIBS:dk_RF_Demodulators
LIBS:dk_RF_Detectors
LIBS:dk_RF_Evaluation_and_Development_Kits_Boards
LIBS:dk_RFID_RF_Access_Monitoring_ICs
LIBS:dk_RF_Receivers
LIBS:dk_RF_Switches
LIBS:dk_RF_Transceiver_ICs
LIBS:dk_RF_Transceiver_Modules
LIBS:dk_RF_Transmitters
LIBS:dk_Rotary_Potentiometers_Rheostats
LIBS:dk_Sensors_Transducers_Accessories
LIBS:dk_Signal_Relays_Up_to_2_Amps
LIBS:dk_Slide_Switches
LIBS:dk_Sockets_for_ICs_Transistors
LIBS:dk_Solid_State_Relays
LIBS:dk_Specialized_ICs
LIBS:dk_Specialized_Sensors
LIBS:dk_Surge_Suppression_ICs
LIBS:dk_Tactile_Switches
LIBS:dk_Temperature_Sensors-Analog_and_Digital_Output
LIBS:dk_Thermal_Cutoffs_(Thermal_Fuses)
LIBS:dk_Thyristors-DIACs_SIDACs
LIBS:dk_Thyristors-SCRs
LIBS:dk_Thyristors-TRIACs
LIBS:dk_Toggle_Switches
LIBS:dk_Transistors-Bipolar_(BJT)-Arrays
LIBS:dk_Transistors-Bipolar_(BJT)-RF
LIBS:dk_Transistors-Bipolar_(BJT)-Single
LIBS:dk_Transistors-Bipolar_(BJT)-Single_Pre-Biased
LIBS:dk_Transistors-FETs_MOSFETs-Arrays
LIBS:dk_Transistors-FETs_MOSFETs-RF
LIBS:dk_Transistors-FETs_MOSFETs-Single
LIBS:dk_Transistors-JFETs
LIBS:dk_Trimmer_Potentiometers
LIBS:dk_TVS-Diodes
LIBS:dk_TVS-Mixed_Technology
LIBS:dk_USB_DVI_HDMI_Connectors
LIBS:demeter-cache
EELAYER 25 0
EELAYER END
$Descr A4 11693 8268
encoding utf-8
Sheet 1 1
Title "Demeter"
Date "2017-12-13"
Rev "1"
Comp "Gebze Technical University"
Comment1 "Author: Hüsamettin Ertürk"
Comment2 "Microprocessor Lesson Project"
Comment3 "Digital Thermometer"
Comment4 ""
$EndDescr
$Comp
L L7805 U3
U 1 1 5A311CBF
P 2550 1550
F 0 "U3" H 2400 1675 50  0000 C CNN
F 1 "L7805" H 2550 1675 50  0000 L CNN
F 2 "TO_SOT_Packages_THT:TO-220-3_Vertical" H 2575 1400 50  0001 L CIN
F 3 "" H 2550 1500 50  0001 C CNN
	1    2550 1550
	1    0    0    -1  
$EndComp
$Comp
L D_Schottky D1
U 1 1 5A311D09
P 1300 1550
F 0 "D1" H 1300 1650 50  0000 C CNN
F 1 "1N5822" H 1300 1450 50  0000 C CNN
F 2 "Diodes_THT:D_DO-201AD_P12.70mm_Horizontal" H 1300 1550 50  0001 C CNN
F 3 "" H 1300 1550 50  0001 C CNN
	1    1300 1550
	-1   0    0    1   
$EndComp
$Comp
L D_Schottky D2
U 1 1 5A311D6E
P 1300 1950
F 0 "D2" H 1300 2050 50  0000 C CNN
F 1 "1N5822" H 1300 1850 50  0000 C CNN
F 2 "Diodes_THT:D_DO-201AD_P12.70mm_Horizontal" H 1300 1950 50  0001 C CNN
F 3 "" H 1300 1950 50  0001 C CNN
	1    1300 1950
	-1   0    0    1   
$EndComp
$Comp
L Battery BT1
U 1 1 5A311D97
P 1000 2300
F 0 "BT1" H 1100 2400 50  0000 L CNN
F 1 "Battery" H 1100 2300 50  0000 L CNN
F 2 "Pin_Headers:Pin_Header_Straight_1x02_Pitch2.00mm" V 1000 2360 50  0001 C CNN
F 3 "" V 1000 2360 50  0001 C CNN
	1    1000 2300
	-1   0    0    1   
$EndComp
$Comp
L C C1
U 1 1 5A311E1A
P 1950 1900
F 0 "C1" H 1975 2000 50  0000 L CNN
F 1 "300n" H 1975 1800 50  0000 L CNN
F 2 "Capacitors_THT:C_Rect_L7.2mm_W2.5mm_P5.00mm_FKS2_FKP2_MKS2_MKP2" H 1988 1750 50  0001 C CNN
F 3 "" H 1950 1900 50  0001 C CNN
	1    1950 1900
	1    0    0    -1  
$EndComp
$Comp
L C C4
U 1 1 5A311E8E
P 3200 1900
F 0 "C4" H 3225 2000 50  0000 L CNN
F 1 "100n" H 3225 1800 50  0000 L CNN
F 2 "Capacitors_THT:C_Rect_L7.2mm_W2.5mm_P5.00mm_FKS2_FKP2_MKS2_MKP2" H 3238 1750 50  0001 C CNN
F 3 "" H 3200 1900 50  0001 C CNN
	1    3200 1900
	1    0    0    -1  
$EndComp
$Comp
L Crystal Y1
U 1 1 5A311ED5
P 2300 3050
F 0 "Y1" H 2300 3200 50  0000 C CNN
F 1 "4MHz" H 2300 2900 50  0000 C CNN
F 2 "Crystals:Crystal_HC50_Vertical" H 2300 3050 50  0001 C CNN
F 3 "" H 2300 3050 50  0001 C CNN
	1    2300 3050
	1    0    0    -1  
$EndComp
$Comp
L C C2
U 1 1 5A311F28
P 2050 2850
F 0 "C2" H 2075 2950 50  0000 L CNN
F 1 "22p" H 2075 2750 50  0000 L CNN
F 2 "Capacitors_THT:C_Disc_D3.0mm_W1.6mm_P2.50mm" H 2088 2700 50  0001 C CNN
F 3 "" H 2050 2850 50  0001 C CNN
	1    2050 2850
	1    0    0    -1  
$EndComp
$Comp
L C C3
U 1 1 5A311F91
P 2550 2850
F 0 "C3" H 2575 2950 50  0000 L CNN
F 1 "22p" H 2575 2750 50  0000 L CNN
F 2 "Capacitors_THT:C_Disc_D3.0mm_W1.6mm_P2.50mm" H 2588 2700 50  0001 C CNN
F 3 "" H 2550 2850 50  0001 C CNN
	1    2550 2850
	1    0    0    -1  
$EndComp
$Comp
L R R1
U 1 1 5A31205C
P 3600 3550
F 0 "R1" V 3680 3550 50  0000 C CNN
F 1 "4.7k" V 3600 3550 50  0000 C CNN
F 2 "Resistors_THT:R_Axial_DIN0309_L9.0mm_D3.2mm_P12.70mm_Horizontal" V 3530 3550 50  0001 C CNN
F 3 "" H 3600 3550 50  0001 C CNN
	1    3600 3550
	1    0    0    -1  
$EndComp
$Comp
L R R2
U 1 1 5A3121CD
P 3850 3800
F 0 "R2" V 3930 3800 50  0000 C CNN
F 1 "10k" V 3850 3800 50  0000 C CNN
F 2 "Resistors_THT:R_Axial_DIN0309_L9.0mm_D3.2mm_P12.70mm_Horizontal" V 3780 3800 50  0001 C CNN
F 3 "" H 3850 3800 50  0001 C CNN
	1    3850 3800
	0    1    1    0   
$EndComp
$Comp
L CP C5
U 1 1 5A312214
P 3600 4050
F 0 "C5" H 3625 4150 50  0000 L CNN
F 1 "100n" H 3625 3950 50  0000 L CNN
F 2 "Capacitors_THT:CP_Radial_D5.0mm_P2.50mm" H 3638 3900 50  0001 C CNN
F 3 "" H 3600 4050 50  0001 C CNN
	1    3600 4050
	1    0    0    -1  
$EndComp
$Comp
L POT RV1
U 1 1 5A312271
P 2250 6400
F 0 "RV1" V 2075 6400 50  0000 C CNN
F 1 "500K" V 2150 6400 50  0000 C CNN
F 2 "Pin_Headers:Pin_Header_Straight_1x03_Pitch2.54mm" H 2250 6400 50  0001 C CNN
F 3 "" H 2250 6400 50  0001 C CNN
	1    2250 6400
	1    0    0    -1  
$EndComp
$Comp
L LM35 U1
U 1 1 5A312B70
P 1150 4500
F 0 "U1" H 1150 4400 50  0000 C CNN
F 1 "LM35" H 1150 4600 50  0000 C CNN
F 2 "digikey-footprints:TO-92-3_(Formed_Leads)" H 1150 4500 50  0001 C CNN
F 3 "DOCUMENTATION" H 1150 4500 50  0001 C CNN
	1    1150 4500
	-1   0    0    -1  
$EndComp
$Comp
L PIC16F877A-RESCUE-demeter U4
U 1 1 5A312F51
P 5900 4750
F 0 "U4" H 5900 4650 50  0000 C CNN
F 1 "PIC16F877A" H 5900 4850 50  0000 C CNN
F 2 "Housings_DIP:DIP-40_W15.24mm_Socket" H 5900 4750 50  0001 C CNN
F 3 "DOCUMENTATION" H 5900 4750 50  0001 C CNN
	1    5900 4750
	1    0    0    -1  
$EndComp
$Comp
L Jack-DC J1
U 1 1 5A3133B9
P 900 1050
F 0 "J1" H 900 1260 50  0000 C CNN
F 1 "Jack-DC" H 900 875 50  0000 C CNN
F 2 "Connectors:BARREL_JACK" H 950 1010 50  0001 C CNN
F 3 "" H 950 1010 50  0001 C CNN
	1    900  1050
	0    -1   1    0   
$EndComp
Wire Wire Line
	1000 1950 1150 1950
Wire Wire Line
	1000 1350 1000 1550
Wire Wire Line
	900  1550 1150 1550
Wire Wire Line
	900  1350 900  1550
Connection ~ 1000 1550
Wire Wire Line
	1450 1950 1600 1950
Wire Wire Line
	1600 1950 1600 1550
Wire Wire Line
	1450 1550 2250 1550
Connection ~ 1600 1550
Wire Wire Line
	1950 1750 1950 1550
Connection ~ 1950 1550
Wire Wire Line
	3200 1750 3200 1550
Wire Wire Line
	2850 1550 3700 1550
Wire Wire Line
	1950 2050 1950 2150
Wire Wire Line
	1950 2150 3200 2150
Wire Wire Line
	2550 1850 2550 2300
Wire Wire Line
	3200 2150 3200 2050
Connection ~ 2550 2150
$Comp
L GND #PWR01
U 1 1 5A313D6D
P 1000 2650
F 0 "#PWR01" H 1000 2400 50  0001 C CNN
F 1 "GND" H 1000 2500 50  0000 C CNN
F 2 "" H 1000 2650 50  0001 C CNN
F 3 "" H 1000 2650 50  0001 C CNN
	1    1000 2650
	1    0    0    -1  
$EndComp
$Comp
L GND #PWR02
U 1 1 5A313DEA
P 2550 2300
F 0 "#PWR02" H 2550 2050 50  0001 C CNN
F 1 "GND" H 2550 2150 50  0000 C CNN
F 2 "" H 2550 2300 50  0001 C CNN
F 3 "" H 2550 2300 50  0001 C CNN
	1    2550 2300
	1    0    0    -1  
$EndComp
Wire Wire Line
	2050 3000 2050 3300
Wire Wire Line
	2050 3050 2150 3050
Wire Wire Line
	2450 3050 2550 3050
Wire Wire Line
	2550 3000 2550 3300
Wire Wire Line
	2050 2700 2050 2650
Wire Wire Line
	1850 2650 2550 2650
Wire Wire Line
	2550 2650 2550 2700
$Comp
L GND #PWR03
U 1 1 5A3142DC
P 1850 2700
F 0 "#PWR03" H 1850 2450 50  0001 C CNN
F 1 "GND" H 1850 2550 50  0000 C CNN
F 2 "" H 1850 2700 50  0001 C CNN
F 3 "" H 1850 2700 50  0001 C CNN
	1    1850 2700
	1    0    0    -1  
$EndComp
Wire Wire Line
	1850 2700 1850 2650
Connection ~ 2050 2650
Connection ~ 3200 1550
Text GLabel 3700 1550 2    60   Input ~ 0
REG_OUT
Text GLabel 2000 4200 1    60   Input ~ 0
REG_OUT
Wire Wire Line
	2000 4100 2000 4400
Wire Wire Line
	2000 4400 1900 4400
$Comp
L GND #PWR04
U 1 1 5A315073
P 2000 4800
F 0 "#PWR04" H 2000 4550 50  0001 C CNN
F 1 "GND" H 2000 4650 50  0000 C CNN
F 2 "" H 2000 4800 50  0001 C CNN
F 3 "" H 2000 4800 50  0001 C CNN
	1    2000 4800
	1    0    0    -1  
$EndComp
Wire Wire Line
	2000 4800 2000 4600
Wire Wire Line
	2000 4600 1900 4600
$Comp
L SW_Push SW1
U 1 1 5A31568D
P 3200 4050
F 0 "SW1" H 3250 4150 50  0000 L CNN
F 1 "SW_Push" H 3200 3990 50  0000 C CNN
F 2 "Buttons_Switches_THT:SW_Tactile_SKHH_Angled" H 3200 4250 50  0001 C CNN
F 3 "" H 3200 4250 50  0001 C CNN
	1    3200 4050
	0    -1   -1   0   
$EndComp
Wire Wire Line
	3600 3700 3600 3900
Wire Wire Line
	3200 3850 3200 3800
Connection ~ 3600 3800
Wire Wire Line
	3200 4250 3200 4300
Wire Wire Line
	3200 4300 3600 4300
Wire Wire Line
	3600 4200 3600 4400
$Comp
L GND #PWR05
U 1 1 5A315FE1
P 3600 4400
F 0 "#PWR05" H 3600 4150 50  0001 C CNN
F 1 "GND" H 3600 4250 50  0000 C CNN
F 2 "" H 3600 4400 50  0001 C CNN
F 3 "" H 3600 4400 50  0001 C CNN
	1    3600 4400
	1    0    0    -1  
$EndComp
Connection ~ 3600 4300
Text GLabel 3600 3300 1    60   Input ~ 0
REG_OUT
Wire Wire Line
	3600 3300 3600 3400
Text GLabel 2250 6050 1    60   Input ~ 0
REG_OUT
$Comp
L GND #PWR06
U 1 1 5A3169B4
P 2250 6750
F 0 "#PWR06" H 2250 6500 50  0001 C CNN
F 1 "GND" H 2250 6600 50  0000 C CNN
F 2 "" H 2250 6750 50  0001 C CNN
F 3 "" H 2250 6750 50  0001 C CNN
	1    2250 6750
	1    0    0    -1  
$EndComp
Wire Wire Line
	2250 6750 2250 6550
Wire Wire Line
	2250 6250 2250 6050
$Comp
L R R3
U 1 1 5A31994D
P 4750 2300
F 0 "R3" V 4830 2300 50  0000 C CNN
F 1 "4.7k" V 4750 2300 50  0000 C CNN
F 2 "Resistors_THT:R_Axial_DIN0309_L9.0mm_D3.2mm_P12.70mm_Horizontal" V 4680 2300 50  0001 C CNN
F 3 "" H 4750 2300 50  0001 C CNN
	1    4750 2300
	0    1    1    0   
$EndComp
$Comp
L D D3
U 1 1 5A319959
P 5500 1550
F 0 "D3" H 5500 1650 50  0000 C CNN
F 1 "1N4007" H 5500 1450 50  0000 C CNN
F 2 "Diodes_THT:D_DO-41_SOD81_P12.70mm_Horizontal" H 5500 1550 50  0001 C CNN
F 3 "" H 5500 1550 50  0001 C CNN
	1    5500 1550
	0    1    1    0   
$EndComp
Wire Wire Line
	5950 1050 5950 1250
Wire Wire Line
	5950 1200 5500 1200
Wire Wire Line
	5500 1200 5500 1400
Wire Wire Line
	5500 1900 5950 1900
Wire Wire Line
	5950 1900 5950 1850
Connection ~ 5500 1900
Wire Wire Line
	5150 2300 5200 2300
$Comp
L GND #PWR07
U 1 1 5A31996D
P 5500 2800
F 0 "#PWR07" H 5500 2550 50  0001 C CNN
F 1 "GND" H 5500 2650 50  0000 C CNN
F 2 "" H 5500 2800 50  0001 C CNN
F 3 "" H 5500 2800 50  0001 C CNN
	1    5500 2800
	1    0    0    -1  
$EndComp
Text GLabel 5950 1050 1    60   Input ~ 0
REG_OUT
Connection ~ 5950 1200
Text GLabel 4900 4700 0    60   Input ~ 0
CTRL_POT0
Text GLabel 2600 6400 2    60   Input ~ 0
CTRL_POT0
Wire Wire Line
	2400 6400 2600 6400
Text GLabel 2100 4500 2    60   Input ~ 0
SENS0
Wire Wire Line
	1900 4500 2100 4500
Text GLabel 4700 4400 0    60   Input ~ 0
SENS0
Wire Wire Line
	4000 3800 5150 3800
Text GLabel 2050 3300 3    60   Input ~ 0
OSC0
Text GLabel 2550 3300 3    60   Input ~ 0
OSC1
Connection ~ 2050 3050
Connection ~ 2550 3050
Text GLabel 4700 5000 0    60   Input ~ 0
OSC0
Text GLabel 4700 5100 0    60   Input ~ 0
OSC1
Wire Wire Line
	5150 5000 4700 5000
Wire Wire Line
	5150 5100 4700 5100
Text GLabel 4450 2150 1    60   Input ~ 0
CON0
Text GLabel 4700 5700 0    60   Input ~ 0
CON0
$Comp
L RC1602A U5
U 1 1 5A31EAB1
P 8700 3100
F 0 "U5" H 8450 3750 50  0000 C CNN
F 1 "RC1602A" H 8810 3750 50  0000 L CNN
F 2 "lcd:TC1602A" H 8800 2300 50  0001 C CNN
F 3 "" H 8800 3000 50  0001 C CNN
	1    8700 3100
	0    -1   -1   0   
$EndComp
$Comp
L GND #PWR08
U 1 1 5A31FA7C
P 800 1650
F 0 "#PWR08" H 800 1400 50  0001 C CNN
F 1 "GND" H 800 1500 50  0000 C CNN
F 2 "" H 800 1650 50  0001 C CNN
F 3 "" H 800 1650 50  0001 C CNN
	1    800  1650
	1    0    0    -1  
$EndComp
Wire Wire Line
	800  1650 800  1350
Text GLabel 7900 3000 1    60   Input ~ 0
REG_OUT
Wire Wire Line
	8000 3100 7900 3100
Wire Wire Line
	7900 3100 7900 3000
Wire Wire Line
	9400 3100 9500 3100
Wire Wire Line
	9500 3100 9500 2650
Wire Wire Line
	9100 3500 9100 5000
Wire Wire Line
	9200 3500 9200 5100
Text GLabel 4850 4800 0    60   Input ~ 0
REG_OUT
Text GLabel 6950 4600 2    60   Input ~ 0
REG_OUT
Wire Wire Line
	6950 4600 6650 4600
Wire Wire Line
	4850 4800 5150 4800
$Comp
L GND #PWR09
U 1 1 5A321704
P 4200 5000
F 0 "#PWR09" H 4200 4750 50  0001 C CNN
F 1 "GND" H 4200 4850 50  0000 C CNN
F 2 "" H 4200 5000 50  0001 C CNN
F 3 "" H 4200 5000 50  0001 C CNN
	1    4200 5000
	1    0    0    -1  
$EndComp
Wire Wire Line
	4200 5000 4200 4900
Wire Wire Line
	4200 4900 5150 4900
$Comp
L GND #PWR010
U 1 1 5A321807
P 7550 4550
F 0 "#PWR010" H 7550 4300 50  0001 C CNN
F 1 "GND" H 7550 4400 50  0000 C CNN
F 2 "" H 7550 4550 50  0001 C CNN
F 3 "" H 7550 4550 50  0001 C CNN
	1    7550 4550
	-1   0    0    1   
$EndComp
Wire Wire Line
	7550 4550 7550 4700
Wire Wire Line
	7550 4700 6650 4700
NoConn ~ 6650 5500
NoConn ~ 6650 5400
NoConn ~ 6650 5300
NoConn ~ 6650 5200
NoConn ~ 6650 4000
NoConn ~ 8500 3500
NoConn ~ 8600 3500
NoConn ~ 8700 3500
NoConn ~ 8800 3500
$Comp
L Conn_01x02 J2
U 1 1 5A3254C1
P 7050 1500
F 0 "J2" H 7050 1600 50  0000 C CNN
F 1 "Conn_01x02" H 7050 1300 50  0000 C CNN
F 2 "TerminalBlock_MetzConnect:TerminalBlock_MetzConnect_Type171_RT13702HBWC_Pitch7.50mm" H 7050 1500 50  0001 C CNN
F 3 "" H 7050 1500 50  0001 C CNN
	1    7050 1500
	1    0    0    -1  
$EndComp
Wire Wire Line
	6450 1250 6450 1150
Wire Wire Line
	6450 1150 6750 1150
Wire Wire Line
	6750 1150 6750 1500
Wire Wire Line
	6750 1500 6850 1500
Wire Wire Line
	6350 1850 6350 2000
Wire Wire Line
	6350 2000 6750 2000
Wire Wire Line
	6750 2000 6750 1600
Wire Wire Line
	6750 1600 6850 1600
NoConn ~ 6250 1250
Wire Wire Line
	3200 3800 3700 3800
Wire Wire Line
	9200 5100 6650 5100
Wire Wire Line
	6650 4800 8900 4800
Wire Wire Line
	9100 5000 6650 5000
Wire Wire Line
	6650 4900 9000 4900
Wire Wire Line
	9000 4900 9000 3500
Wire Wire Line
	8900 4800 8900 3500
$Comp
L G5Q-1 K1
U 1 1 5A354E50
P 5950 1750
F 0 "K1" H 6600 2100 50  0000 L CNN
F 1 "G5Q-1" H 6600 2000 50  0000 L CNN
F 2 "relay_custom:Relay_SPDT_OMRON-G5LE-1" H 6600 1900 50  0001 L CNN
F 3 "" H 6600 1600 50  0001 L CNN
	1    5950 1750
	1    0    0    -1  
$EndComp
NoConn ~ 6650 3800
NoConn ~ 6650 3900
$Comp
L GND #PWR011
U 1 1 5A3648C3
P 9500 2650
F 0 "#PWR011" H 9500 2400 50  0001 C CNN
F 1 "GND" H 9500 2500 50  0000 C CNN
F 2 "" H 9500 2650 50  0001 C CNN
F 3 "" H 9500 2650 50  0001 C CNN
	1    9500 2650
	-1   0    0    1   
$EndComp
$Comp
L GND #PWR012
U 1 1 5A364D3D
P 8800 1650
F 0 "#PWR012" H 8800 1400 50  0001 C CNN
F 1 "GND" H 8800 1500 50  0000 C CNN
F 2 "" H 8800 1650 50  0001 C CNN
F 3 "" H 8800 1650 50  0001 C CNN
	1    8800 1650
	-1   0    0    1   
$EndComp
Text GLabel 8200 1650 1    60   Input ~ 0
REG_OUT
NoConn ~ 5150 4000
NoConn ~ 5150 4200
NoConn ~ 5150 4600
$Comp
L GND #PWR013
U 1 1 5A37068A
P 8900 2550
F 0 "#PWR013" H 8900 2300 50  0001 C CNN
F 1 "GND" H 8900 2400 50  0000 C CNN
F 2 "" H 8900 2550 50  0001 C CNN
F 3 "" H 8900 2550 50  0001 C CNN
	1    8900 2550
	-1   0    0    1   
$EndComp
Wire Wire Line
	8900 2700 8900 2550
Text GLabel 9000 2500 2    60   Input ~ 0
REG_OUT
Wire Wire Line
	9000 2700 9000 2500
NoConn ~ 5150 5200
NoConn ~ 5150 5300
NoConn ~ 5150 5400
NoConn ~ 5150 5500
$Comp
L POT RV3
U 1 1 5A37D4F7
P 8500 1800
F 0 "RV3" V 8325 1800 50  0000 C CNN
F 1 "POT" V 8400 1800 50  0000 C CNN
F 2 "Potentiometers:Potentiometer_Trimmer_ACP_CA9v_Horizontal_Px10.0mm_Py5.0mm" H 8500 1800 50  0001 C CNN
F 3 "" H 8500 1800 50  0001 C CNN
	1    8500 1800
	0    1    1    0   
$EndComp
Wire Wire Line
	8500 1950 8500 2700
NoConn ~ 5150 4100
NoConn ~ 5150 4500
NoConn ~ 6650 5700
Wire Wire Line
	4700 4400 5150 4400
Wire Wire Line
	5150 4700 4900 4700
NoConn ~ 5150 4300
NoConn ~ 5150 3900
Wire Wire Line
	8200 3500 8200 4100
Wire Wire Line
	8200 4100 6650 4100
Wire Wire Line
	8300 3500 8300 4200
Wire Wire Line
	8300 4200 6650 4200
Wire Wire Line
	8400 3500 8400 4300
Wire Wire Line
	8400 4300 6650 4300
NoConn ~ 6650 4400
NoConn ~ 6650 4500
$Comp
L 2N2222 Q1
U 1 1 5A39E1CD
P 5400 2300
F 0 "Q1" H 5250 2450 60  0000 C CNN
F 1 "2N2222" H 5050 2100 60  0000 C CNN
F 2 "digikey-footprints:TO-92-3_(Formed_Leads)" H 5600 2500 60  0001 L CNN
F 3 "https://www.centralsemi.com/get_document.php?cmp=1&mergetype=pd&mergepath=pd&pdf_id=2N2221.PDF" H 5600 2600 60  0001 L CNN
F 4 "2N2222CS-ND" H 5600 2700 60  0001 L CNN "Digi-Key_PN"
F 5 "2N2222" H 5600 2800 60  0001 L CNN "MPN"
F 6 "Discrete Semiconductor Products" H 5600 2900 60  0001 L CNN "Category"
F 7 "Transistors - Bipolar (BJT) - Single" H 5600 3000 60  0001 L CNN "Family"
F 8 "https://www.centralsemi.com/get_document.php?cmp=1&mergetype=pd&mergepath=pd&pdf_id=2N2221.PDF" H 5600 3100 60  0001 L CNN "DK_Datasheet_Link"
F 9 "/product-detail/en/central-semiconductor-corp/2N2222/2N2222CS-ND/4806844" H 5600 3200 60  0001 L CNN "DK_Detail_Page"
F 10 "TRANS NPN 30V 0.8A TO-18" H 5600 3300 60  0001 L CNN "Description"
F 11 "Central Semiconductor Corp" H 5600 3400 60  0001 L CNN "Manufacturer"
	1    5400 2300
	1    0    0    -1  
$EndComp
Wire Wire Line
	4450 2150 4450 2300
Wire Wire Line
	4450 2300 4600 2300
Wire Wire Line
	4900 2300 5050 2300
Wire Wire Line
	5500 1700 5500 2000
Wire Wire Line
	5500 2800 5500 2600
Wire Wire Line
	1000 2650 1000 2500
Wire Wire Line
	1000 2100 1000 1950
Wire Wire Line
	8800 1650 8800 1800
Wire Wire Line
	8800 1800 8650 1800
Wire Wire Line
	8350 1800 8200 1800
Wire Wire Line
	8200 1800 8200 1650
Wire Wire Line
	4700 5700 5150 5700
NoConn ~ 6650 5600
NoConn ~ 5150 5600
$EndSCHEMATC
