CCS PCM C Compiler, Version 5.015, 5967               28-Dec-17 06:55

               Filename:   Z:\home\husam\Dropbox\Projects_and_Works\demeter\src\build\default\production\main.lst

               ROM used:   1745 words (21%)
                           Largest free fragment is 2048
               RAM used:   27 (7%) at main() level
                           49 (13%) worst case
               Stack used: 5 locations
               Stack size: 8

*
0000:  MOVLW  05
0001:  MOVWF  0A
0002:  GOTO   568
0003:  NOP
.................... /*  
....................  * File:   main.c 
....................  * Author: husam 
....................  * 
....................  * Created on December 8, 2017, 11:15 PM 
....................  */ 
.................... #include<16F877A.h> 
.................... //////////// Standard Header file for the PIC16F877A device //////////////// 
.................... /////////////////////////////////////////////////////////////////////////// 
.................... ////        (C) Copyright 1996, 2013 Custom Computer Services          //// 
.................... //// This source code may only be used by licensed users of the CCS C  //// 
.................... //// compiler.  This source code may only be distributed to other      //// 
.................... //// licensed users of the CCS C compiler.  No other use, reproduction //// 
.................... //// or distribution is permitted without written permission.          //// 
.................... //// Derivative programs created using this software in object code    //// 
.................... //// form are not restricted in any way.                               //// 
.................... /////////////////////////////////////////////////////////////////////////// 
.................... #device PIC16F877A 
0004:  DATA 0C,10
0005:  DATA 20,10
0006:  DATA 20,10
0007:  DATA C4,22
0008:  DATA CD,22
0009:  DATA D4,22
000A:  DATA 52,10
000B:  DATA 00,00
000C:  DATA 0A,10
000D:  DATA 20,10
000E:  DATA F6,32
000F:  DATA F2,39
0010:  DATA E9,37
0011:  DATA 6E,10
0012:  DATA 30,17
0013:  DATA B0,18
0014:  DATA 00,00
0015:  DATA 0C,2A
0016:  DATA B0,1E
0017:  DATA 25,1A
0018:  DATA AE,18
0019:  DATA 66,10
001A:  DATA D3,1E
001B:  DATA 25,1A
001C:  DATA AE,18
001D:  DATA 66,10
001E:  DATA 20,00
001F:  DATA 0A,29
0020:  DATA 65,36
0021:  DATA E1,3C
0022:  DATA A0,12
0023:  DATA 63,10
0024:  DATA 20,10
0025:  DATA 20,10
0026:  DATA 20,10
0027:  DATA 20,10
0028:  DATA 00,00
*
017A:  MOVF   0B,W
017B:  MOVWF  32
017C:  BCF    0B.7
017D:  BSF    03.5
017E:  BSF    03.6
017F:  BSF    0C.7
0180:  BSF    0C.0
0181:  NOP
0182:  NOP
0183:  BCF    03.5
0184:  BCF    03.6
0185:  BTFSC  32.7
0186:  BSF    0B.7
0187:  BSF    03.6
0188:  MOVF   0C,W
0189:  ANDLW  7F
018A:  BTFSC  03.2
018B:  GOTO   1CE
018C:  BCF    03.6
018D:  MOVWF  32
018E:  BSF    03.6
018F:  MOVF   0D,W
0190:  BCF    03.6
0191:  MOVWF  33
0192:  BSF    03.6
0193:  MOVF   0F,W
0194:  BCF    03.6
0195:  MOVWF  34
0196:  MOVF   32,W
0197:  MOVWF  3F
0198:  CALL   14E
0199:  MOVF   33,W
019A:  BSF    03.6
019B:  MOVWF  0D
019C:  BCF    03.6
019D:  MOVF   34,W
019E:  BSF    03.6
019F:  MOVWF  0F
01A0:  BCF    03.6
01A1:  MOVF   0B,W
01A2:  MOVWF  35
01A3:  BCF    0B.7
01A4:  BSF    03.5
01A5:  BSF    03.6
01A6:  BSF    0C.7
01A7:  BSF    0C.0
01A8:  NOP
01A9:  NOP
01AA:  BCF    03.5
01AB:  BCF    03.6
01AC:  BTFSC  35.7
01AD:  BSF    0B.7
01AE:  BSF    03.6
01AF:  RLF    0C,W
01B0:  RLF    0E,W
01B1:  ANDLW  7F
01B2:  BTFSC  03.2
01B3:  GOTO   1CE
01B4:  BCF    03.6
01B5:  MOVWF  32
01B6:  BSF    03.6
01B7:  MOVF   0D,W
01B8:  BCF    03.6
01B9:  MOVWF  33
01BA:  BSF    03.6
01BB:  MOVF   0F,W
01BC:  BCF    03.6
01BD:  MOVWF  34
01BE:  MOVF   32,W
01BF:  MOVWF  3F
01C0:  CALL   14E
01C1:  MOVF   33,W
01C2:  BSF    03.6
01C3:  MOVWF  0D
01C4:  BCF    03.6
01C5:  MOVF   34,W
01C6:  BSF    03.6
01C7:  MOVWF  0F
01C8:  INCF   0D,F
01C9:  BTFSC  03.2
01CA:  INCF   0F,F
01CB:  BCF    03.6
01CC:  GOTO   17A
01CD:  BSF    03.6
01CE:  BCF    03.6
01CF:  RETURN
01D0:  MOVLW  8E
01D1:  MOVWF  77
01D2:  MOVF   33,W
01D3:  MOVWF  78
01D4:  MOVF   32,W
01D5:  MOVWF  79
01D6:  CLRF   7A
01D7:  MOVF   78,F
01D8:  BTFSS  03.2
01D9:  GOTO   1E4
01DA:  MOVF   79,W
01DB:  MOVWF  78
01DC:  CLRF   79
01DD:  MOVLW  08
01DE:  SUBWF  77,F
01DF:  MOVF   78,F
01E0:  BTFSS  03.2
01E1:  GOTO   1E4
01E2:  CLRF   77
01E3:  GOTO   1EC
01E4:  BCF    03.0
01E5:  BTFSC  78.7
01E6:  GOTO   1EB
01E7:  RLF    79,F
01E8:  RLF    78,F
01E9:  DECF   77,F
01EA:  GOTO   1E4
01EB:  BCF    78.7
01EC:  RETURN
01ED:  MOVF   3F,W
01EE:  BTFSC  03.2
01EF:  GOTO   25D
01F0:  MOVWF  47
01F1:  MOVF   43,W
01F2:  BTFSC  03.2
01F3:  GOTO   25D
01F4:  ADDWF  47,F
01F5:  BTFSC  03.0
01F6:  GOTO   1FE
01F7:  MOVLW  7F
01F8:  SUBWF  47,F
01F9:  BTFSS  03.0
01FA:  GOTO   25D
01FB:  BTFSC  03.2
01FC:  GOTO   25D
01FD:  GOTO   202
01FE:  MOVLW  81
01FF:  ADDWF  47,F
0200:  BTFSC  03.0
0201:  GOTO   25D
0202:  MOVF   47,W
0203:  MOVWF  77
0204:  CLRF   78
0205:  CLRF   79
0206:  CLRF   7A
0207:  MOVF   40,W
0208:  MOVWF  4B
0209:  BSF    4B.7
020A:  MOVF   41,W
020B:  MOVWF  4A
020C:  MOVF   42,W
020D:  MOVWF  49
020E:  MOVLW  18
020F:  MOVWF  47
0210:  CLRF   48
0211:  BTFSS  49.0
0212:  GOTO   22B
0213:  MOVF   46,W
0214:  ADDWF  7A,F
0215:  BTFSS  03.0
0216:  GOTO   21D
0217:  INCF   79,F
0218:  BTFSS  03.2
0219:  GOTO   21D
021A:  INCF   78,F
021B:  BTFSC  03.2
021C:  BSF    48.7
021D:  MOVF   45,W
021E:  ADDWF  79,F
021F:  BTFSS  03.0
0220:  GOTO   224
0221:  INCF   78,F
0222:  BTFSC  03.2
0223:  BSF    48.7
0224:  MOVF   44,W
0225:  MOVWF  41
0226:  BSF    41.7
0227:  MOVF   41,W
0228:  ADDWF  78,F
0229:  BTFSC  03.0
022A:  BSF    48.7
022B:  RLF    48,F
022C:  RRF    78,F
022D:  RRF    79,F
022E:  RRF    7A,F
022F:  RRF    4B,F
0230:  RRF    4A,F
0231:  RRF    49,F
0232:  BCF    03.0
0233:  DECFSZ 47,F
0234:  GOTO   210
0235:  MOVLW  01
0236:  ADDWF  77,F
0237:  BTFSC  03.0
0238:  GOTO   25D
0239:  BTFSC  78.7
023A:  GOTO   242
023B:  RLF    4B,F
023C:  RLF    7A,F
023D:  RLF    79,F
023E:  RLF    78,F
023F:  DECF   77,F
0240:  BTFSC  03.2
0241:  GOTO   25D
0242:  BTFSS  4B.7
0243:  GOTO   253
0244:  INCF   7A,F
0245:  BTFSS  03.2
0246:  GOTO   253
0247:  INCF   79,F
0248:  BTFSS  03.2
0249:  GOTO   253
024A:  INCF   78,F
024B:  BTFSS  03.2
024C:  GOTO   253
024D:  RRF    78,F
024E:  RRF    79,F
024F:  RRF    7A,F
0250:  INCF   77,F
0251:  BTFSC  03.2
0252:  GOTO   25D
0253:  MOVF   40,W
0254:  MOVWF  48
0255:  MOVF   44,W
0256:  XORWF  48,F
0257:  BTFSS  48.7
0258:  GOTO   25B
0259:  BSF    78.7
025A:  GOTO   261
025B:  BCF    78.7
025C:  GOTO   261
025D:  CLRF   77
025E:  CLRF   78
025F:  CLRF   79
0260:  CLRF   7A
0261:  RETURN
0262:  MOVLW  80
0263:  BTFSC  03.1
0264:  XORWF  3B,F
0265:  CLRF   40
0266:  CLRF   41
0267:  MOVF   37,W
0268:  MOVWF  3F
0269:  MOVF   3B,W
026A:  XORWF  3F,F
026B:  MOVF   36,W
026C:  BTFSC  03.2
026D:  GOTO   352
026E:  MOVWF  3E
026F:  MOVWF  77
0270:  MOVF   3A,W
0271:  BTFSC  03.2
0272:  GOTO   35B
0273:  SUBWF  3E,F
0274:  BTFSC  03.2
0275:  GOTO   2F7
0276:  BTFSS  03.0
0277:  GOTO   2B5
0278:  MOVF   3B,W
0279:  MOVWF  44
027A:  BSF    44.7
027B:  MOVF   3C,W
027C:  MOVWF  43
027D:  MOVF   3D,W
027E:  MOVWF  42
027F:  CLRF   41
0280:  BCF    03.0
0281:  RRF    44,F
0282:  RRF    43,F
0283:  RRF    42,F
0284:  RRF    41,F
0285:  DECFSZ 3E,F
0286:  GOTO   27F
0287:  BTFSS  3F.7
0288:  GOTO   28C
0289:  BSF    40.0
028A:  GOTO   36F
028B:  BCF    40.0
028C:  BCF    3E.0
028D:  BSF    40.4
028E:  MOVLW  39
028F:  MOVWF  04
0290:  BCF    03.7
0291:  GOTO   384
0292:  BCF    40.4
0293:  BTFSC  3F.7
0294:  GOTO   29F
0295:  BTFSS  3E.0
0296:  GOTO   2AA
0297:  RRF    44,F
0298:  RRF    43,F
0299:  RRF    42,F
029A:  RRF    41,F
029B:  INCF   77,F
029C:  BTFSC  03.2
029D:  GOTO   36A
029E:  GOTO   2AA
029F:  BTFSC  44.7
02A0:  GOTO   2AD
02A1:  BCF    03.0
02A2:  RLF    41,F
02A3:  RLF    42,F
02A4:  RLF    43,F
02A5:  RLF    44,F
02A6:  DECF   77,F
02A7:  BTFSC  03.2
02A8:  GOTO   36A
02A9:  GOTO   29F
02AA:  BSF    40.6
02AB:  GOTO   317
02AC:  BCF    40.6
02AD:  MOVF   37,W
02AE:  MOVWF  3F
02AF:  BTFSS  3F.7
02B0:  GOTO   2B3
02B1:  BSF    44.7
02B2:  GOTO   363
02B3:  BCF    44.7
02B4:  GOTO   363
02B5:  MOVF   3A,W
02B6:  MOVWF  3E
02B7:  MOVWF  77
02B8:  MOVF   36,W
02B9:  SUBWF  3E,F
02BA:  MOVF   37,W
02BB:  MOVWF  44
02BC:  BSF    44.7
02BD:  MOVF   38,W
02BE:  MOVWF  43
02BF:  MOVF   39,W
02C0:  MOVWF  42
02C1:  CLRF   41
02C2:  BCF    03.0
02C3:  RRF    44,F
02C4:  RRF    43,F
02C5:  RRF    42,F
02C6:  RRF    41,F
02C7:  DECFSZ 3E,F
02C8:  GOTO   2C1
02C9:  BTFSS  3F.7
02CA:  GOTO   2CE
02CB:  BSF    40.1
02CC:  GOTO   36F
02CD:  BCF    40.1
02CE:  BCF    3E.0
02CF:  BSF    40.5
02D0:  MOVLW  3D
02D1:  MOVWF  04
02D2:  BCF    03.7
02D3:  GOTO   384
02D4:  BCF    40.5
02D5:  BTFSC  3F.7
02D6:  GOTO   2E1
02D7:  BTFSS  3E.0
02D8:  GOTO   2EC
02D9:  RRF    44,F
02DA:  RRF    43,F
02DB:  RRF    42,F
02DC:  RRF    41,F
02DD:  INCF   77,F
02DE:  BTFSC  03.2
02DF:  GOTO   36A
02E0:  GOTO   2EC
02E1:  BTFSC  44.7
02E2:  GOTO   2EF
02E3:  BCF    03.0
02E4:  RLF    41,F
02E5:  RLF    42,F
02E6:  RLF    43,F
02E7:  RLF    44,F
02E8:  DECF   77,F
02E9:  BTFSC  03.2
02EA:  GOTO   36A
02EB:  GOTO   2E1
02EC:  BSF    40.7
02ED:  GOTO   317
02EE:  BCF    40.7
02EF:  MOVF   3B,W
02F0:  MOVWF  3F
02F1:  BTFSS  3F.7
02F2:  GOTO   2F5
02F3:  BSF    44.7
02F4:  GOTO   363
02F5:  BCF    44.7
02F6:  GOTO   363
02F7:  MOVF   3B,W
02F8:  MOVWF  44
02F9:  BSF    44.7
02FA:  MOVF   3C,W
02FB:  MOVWF  43
02FC:  MOVF   3D,W
02FD:  MOVWF  42
02FE:  BTFSS  3F.7
02FF:  GOTO   304
0300:  BCF    44.7
0301:  BSF    40.2
0302:  GOTO   36F
0303:  BCF    40.2
0304:  CLRF   41
0305:  BCF    3E.0
0306:  MOVLW  39
0307:  MOVWF  04
0308:  BCF    03.7
0309:  GOTO   384
030A:  BTFSC  3F.7
030B:  GOTO   32D
030C:  MOVF   37,W
030D:  MOVWF  3F
030E:  BTFSS  3E.0
030F:  GOTO   317
0310:  RRF    44,F
0311:  RRF    43,F
0312:  RRF    42,F
0313:  RRF    41,F
0314:  INCF   77,F
0315:  BTFSC  03.2
0316:  GOTO   36A
0317:  BTFSS  41.7
0318:  GOTO   328
0319:  INCF   42,F
031A:  BTFSS  03.2
031B:  GOTO   328
031C:  INCF   43,F
031D:  BTFSS  03.2
031E:  GOTO   328
031F:  INCF   44,F
0320:  BTFSS  03.2
0321:  GOTO   328
0322:  RRF    44,F
0323:  RRF    43,F
0324:  RRF    42,F
0325:  INCF   77,F
0326:  BTFSC  03.2
0327:  GOTO   36A
0328:  BTFSC  40.6
0329:  GOTO   2AC
032A:  BTFSC  40.7
032B:  GOTO   2EE
032C:  GOTO   34C
032D:  MOVLW  80
032E:  XORWF  44,F
032F:  BTFSS  44.7
0330:  GOTO   335
0331:  GOTO   36F
0332:  MOVF   3B,W
0333:  MOVWF  3F
0334:  GOTO   342
0335:  MOVF   37,W
0336:  MOVWF  3F
0337:  MOVF   44,F
0338:  BTFSS  03.2
0339:  GOTO   342
033A:  MOVF   43,F
033B:  BTFSS  03.2
033C:  GOTO   342
033D:  MOVF   42,F
033E:  BTFSS  03.2
033F:  GOTO   342
0340:  CLRF   77
0341:  GOTO   363
0342:  BTFSC  44.7
0343:  GOTO   34C
0344:  BCF    03.0
0345:  RLF    41,F
0346:  RLF    42,F
0347:  RLF    43,F
0348:  RLF    44,F
0349:  DECFSZ 77,F
034A:  GOTO   342
034B:  GOTO   36A
034C:  BTFSS  3F.7
034D:  GOTO   350
034E:  BSF    44.7
034F:  GOTO   363
0350:  BCF    44.7
0351:  GOTO   363
0352:  MOVF   3A,W
0353:  MOVWF  77
0354:  MOVF   3B,W
0355:  MOVWF  44
0356:  MOVF   3C,W
0357:  MOVWF  43
0358:  MOVF   3D,W
0359:  MOVWF  42
035A:  GOTO   363
035B:  MOVF   36,W
035C:  MOVWF  77
035D:  MOVF   37,W
035E:  MOVWF  44
035F:  MOVF   38,W
0360:  MOVWF  43
0361:  MOVF   39,W
0362:  MOVWF  42
0363:  MOVF   44,W
0364:  MOVWF  78
0365:  MOVF   43,W
0366:  MOVWF  79
0367:  MOVF   42,W
0368:  MOVWF  7A
0369:  GOTO   3A2
036A:  CLRF   77
036B:  CLRF   78
036C:  CLRF   79
036D:  CLRF   7A
036E:  GOTO   3A2
036F:  CLRF   41
0370:  COMF   42,F
0371:  COMF   43,F
0372:  COMF   44,F
0373:  COMF   41,F
0374:  INCF   41,F
0375:  BTFSS  03.2
0376:  GOTO   37D
0377:  INCF   42,F
0378:  BTFSS  03.2
0379:  GOTO   37D
037A:  INCF   43,F
037B:  BTFSC  03.2
037C:  INCF   44,F
037D:  BTFSC  40.0
037E:  GOTO   28B
037F:  BTFSC  40.1
0380:  GOTO   2CD
0381:  BTFSC  40.2
0382:  GOTO   303
0383:  GOTO   332
0384:  MOVF   00,W
0385:  ADDWF  42,F
0386:  BTFSS  03.0
0387:  GOTO   38E
0388:  INCF   43,F
0389:  BTFSS  03.2
038A:  GOTO   38E
038B:  INCF   44,F
038C:  BTFSC  03.2
038D:  BSF    3E.0
038E:  DECF   04,F
038F:  MOVF   00,W
0390:  ADDWF  43,F
0391:  BTFSS  03.0
0392:  GOTO   396
0393:  INCF   44,F
0394:  BTFSC  03.2
0395:  BSF    3E.0
0396:  DECF   04,F
0397:  MOVF   00,W
0398:  BTFSS  00.7
0399:  XORLW  80
039A:  ADDWF  44,F
039B:  BTFSC  03.0
039C:  BSF    3E.0
039D:  BTFSC  40.4
039E:  GOTO   292
039F:  BTFSC  40.5
03A0:  GOTO   2D4
03A1:  GOTO   30A
03A2:  RETURN
03A3:  MOVF   0B,W
03A4:  MOVWF  33
03A5:  BCF    0B.7
03A6:  BSF    03.5
03A7:  BSF    03.6
03A8:  BSF    0C.7
03A9:  BSF    0C.0
03AA:  NOP
03AB:  NOP
03AC:  BCF    03.5
03AD:  BCF    03.6
03AE:  BTFSC  33.7
03AF:  BSF    0B.7
03B0:  BTFSC  03.0
03B1:  GOTO   3DA
03B2:  BSF    03.6
03B3:  MOVF   0C,W
03B4:  ANDLW  7F
03B5:  BCF    03.6
03B6:  MOVWF  33
03B7:  BSF    03.6
03B8:  MOVF   0D,W
03B9:  BCF    03.6
03BA:  MOVWF  34
03BB:  BSF    03.6
03BC:  MOVF   0F,W
03BD:  BCF    03.6
03BE:  MOVWF  35
03BF:  MOVF   33,W
03C0:  MOVWF  3F
03C1:  CALL   14E
03C2:  MOVF   34,W
03C3:  BSF    03.6
03C4:  MOVWF  0D
03C5:  BCF    03.6
03C6:  MOVF   35,W
03C7:  BSF    03.6
03C8:  MOVWF  0F
03C9:  BCF    03.6
03CA:  MOVF   0B,W
03CB:  MOVWF  36
03CC:  BCF    0B.7
03CD:  BSF    03.5
03CE:  BSF    03.6
03CF:  BSF    0C.7
03D0:  BSF    0C.0
03D1:  NOP
03D2:  NOP
03D3:  BCF    03.5
03D4:  BCF    03.6
03D5:  BTFSC  36.7
03D6:  BSF    0B.7
03D7:  DECFSZ 32,F
03D8:  GOTO   3DA
03D9:  GOTO   3F9
03DA:  BSF    03.6
03DB:  RLF    0C,W
03DC:  RLF    0E,W
03DD:  ANDLW  7F
03DE:  BCF    03.6
03DF:  MOVWF  33
03E0:  BSF    03.6
03E1:  MOVF   0D,W
03E2:  BCF    03.6
03E3:  MOVWF  34
03E4:  BSF    03.6
03E5:  MOVF   0F,W
03E6:  BCF    03.6
03E7:  MOVWF  35
03E8:  MOVF   33,W
03E9:  MOVWF  3F
03EA:  CALL   14E
03EB:  MOVF   34,W
03EC:  BSF    03.6
03ED:  MOVWF  0D
03EE:  BCF    03.6
03EF:  MOVF   35,W
03F0:  BSF    03.6
03F1:  MOVWF  0F
03F2:  INCF   0D,F
03F3:  BTFSC  03.2
03F4:  INCF   0F,F
03F5:  BCF    03.0
03F6:  BCF    03.6
03F7:  DECFSZ 32,F
03F8:  GOTO   3A3
03F9:  RETURN
03FA:  BTFSC  03.1
03FB:  GOTO   3FF
03FC:  MOVLW  47
03FD:  MOVWF  04
03FE:  BCF    03.7
03FF:  CLRF   77
0400:  CLRF   78
0401:  CLRF   79
0402:  CLRF   7A
0403:  CLRF   47
0404:  CLRF   48
0405:  CLRF   49
0406:  CLRF   4A
0407:  MOVF   46,W
0408:  IORWF  45,W
0409:  IORWF  44,W
040A:  IORWF  43,W
040B:  BTFSC  03.2
040C:  GOTO   43D
040D:  MOVLW  20
040E:  MOVWF  4B
040F:  BCF    03.0
0410:  RLF    3F,F
0411:  RLF    40,F
0412:  RLF    41,F
0413:  RLF    42,F
0414:  RLF    47,F
0415:  RLF    48,F
0416:  RLF    49,F
0417:  RLF    4A,F
0418:  MOVF   46,W
0419:  SUBWF  4A,W
041A:  BTFSS  03.2
041B:  GOTO   426
041C:  MOVF   45,W
041D:  SUBWF  49,W
041E:  BTFSS  03.2
041F:  GOTO   426
0420:  MOVF   44,W
0421:  SUBWF  48,W
0422:  BTFSS  03.2
0423:  GOTO   426
0424:  MOVF   43,W
0425:  SUBWF  47,W
0426:  BTFSS  03.0
0427:  GOTO   437
0428:  MOVF   43,W
0429:  SUBWF  47,F
042A:  MOVF   44,W
042B:  BTFSS  03.0
042C:  INCFSZ 44,W
042D:  SUBWF  48,F
042E:  MOVF   45,W
042F:  BTFSS  03.0
0430:  INCFSZ 45,W
0431:  SUBWF  49,F
0432:  MOVF   46,W
0433:  BTFSS  03.0
0434:  INCFSZ 46,W
0435:  SUBWF  4A,F
0436:  BSF    03.0
0437:  RLF    77,F
0438:  RLF    78,F
0439:  RLF    79,F
043A:  RLF    7A,F
043B:  DECFSZ 4B,F
043C:  GOTO   40F
043D:  MOVF   47,W
043E:  MOVWF  00
043F:  INCF   04,F
0440:  MOVF   48,W
0441:  MOVWF  00
0442:  INCF   04,F
0443:  MOVF   49,W
0444:  MOVWF  00
0445:  INCF   04,F
0446:  MOVF   4A,W
0447:  MOVWF  00
0448:  RETURN
0449:  MOVF   04,W
044A:  MOVWF  37
044B:  MOVF   36,W
044C:  MOVWF  39
044D:  BTFSC  03.2
044E:  GOTO   468
044F:  MOVF   35,W
0450:  MOVWF  42
0451:  MOVF   34,W
0452:  MOVWF  41
0453:  MOVF   33,W
0454:  MOVWF  40
0455:  MOVF   32,W
0456:  MOVWF  3F
0457:  CLRF   46
0458:  CLRF   45
0459:  MOVLW  20
045A:  MOVWF  44
045B:  MOVLW  82
045C:  MOVWF  43
045D:  CALL   1ED
045E:  MOVF   7A,W
045F:  MOVWF  35
0460:  MOVF   79,W
0461:  MOVWF  34
0462:  MOVF   78,W
0463:  MOVWF  33
0464:  MOVF   77,W
0465:  MOVWF  32
0466:  DECFSZ 39,F
0467:  GOTO   44F
0468:  MOVF   35,W
0469:  MOVWF  42
046A:  MOVF   34,W
046B:  MOVWF  41
046C:  MOVF   33,W
046D:  MOVWF  40
046E:  MOVF   32,W
046F:  MOVWF  3F
0470:  MOVF   3F,W
0471:  SUBLW  B6
0472:  MOVWF  3F
0473:  CLRF   7A
0474:  MOVF   40,W
0475:  MOVWF  43
0476:  BSF    40.7
0477:  BCF    03.0
0478:  RRF    40,F
0479:  RRF    41,F
047A:  RRF    42,F
047B:  RRF    7A,F
047C:  RRF    79,F
047D:  RRF    78,F
047E:  RRF    77,F
047F:  DECFSZ 3F,F
0480:  GOTO   477
0481:  BTFSS  43.7
0482:  GOTO   48E
0483:  COMF   77,F
0484:  COMF   78,F
0485:  COMF   79,F
0486:  COMF   7A,F
0487:  INCF   77,F
0488:  BTFSC  03.2
0489:  INCF   78,F
048A:  BTFSC  03.2
048B:  INCF   79,F
048C:  BTFSC  03.2
048D:  INCF   7A,F
048E:  MOVF   7A,W
048F:  MOVWF  35
0490:  MOVF   79,W
0491:  MOVWF  34
0492:  MOVF   78,W
0493:  MOVWF  33
0494:  MOVF   77,W
0495:  MOVWF  32
0496:  BTFSS  35.7
0497:  GOTO   4A5
0498:  DECF   37,F
0499:  BSF    37.5
049A:  COMF   32,F
049B:  COMF   33,F
049C:  COMF   34,F
049D:  COMF   35,F
049E:  INCF   32,F
049F:  BTFSC  03.2
04A0:  INCF   33,F
04A1:  BTFSC  03.2
04A2:  INCF   34,F
04A3:  BTFSC  03.2
04A4:  INCF   35,F
04A5:  MOVLW  3B
04A6:  MOVWF  3E
04A7:  MOVLW  9A
04A8:  MOVWF  3D
04A9:  MOVLW  CA
04AA:  MOVWF  3C
04AB:  CLRF   3B
04AC:  MOVLW  0A
04AD:  MOVWF  39
04AE:  MOVF   36,W
04AF:  BTFSC  03.2
04B0:  INCF   37,F
04B1:  BSF    03.1
04B2:  MOVLW  32
04B3:  MOVWF  04
04B4:  BCF    03.7
04B5:  MOVF   35,W
04B6:  MOVWF  42
04B7:  MOVF   34,W
04B8:  MOVWF  41
04B9:  MOVF   33,W
04BA:  MOVWF  40
04BB:  MOVF   32,W
04BC:  MOVWF  3F
04BD:  MOVF   3E,W
04BE:  MOVWF  46
04BF:  MOVF   3D,W
04C0:  MOVWF  45
04C1:  MOVF   3C,W
04C2:  MOVWF  44
04C3:  MOVF   3B,W
04C4:  MOVWF  43
04C5:  CALL   3FA
04C6:  MOVF   78,W
04C7:  MOVF   77,F
04C8:  BTFSS  03.2
04C9:  GOTO   4DD
04CA:  INCF   36,W
04CB:  SUBWF  39,W
04CC:  BTFSC  03.2
04CD:  GOTO   4DD
04CE:  MOVF   37,W
04CF:  BTFSC  03.2
04D0:  GOTO   4DF
04D1:  ANDLW  0F
04D2:  SUBWF  39,W
04D3:  BTFSC  03.2
04D4:  GOTO   4D7
04D5:  BTFSC  03.0
04D6:  GOTO   50F
04D7:  BTFSC  37.7
04D8:  GOTO   50F
04D9:  BTFSC  37.6
04DA:  GOTO   4DF
04DB:  MOVLW  20
04DC:  GOTO   50B
04DD:  MOVLW  20
04DE:  ANDWF  37,F
04DF:  BTFSS  37.5
04E0:  GOTO   4ED
04E1:  BCF    37.5
04E2:  MOVF   36,W
04E3:  BTFSS  03.2
04E4:  DECF   37,F
04E5:  MOVF   77,W
04E6:  MOVWF  37
04E7:  MOVLW  2D
04E8:  MOVWF  3F
04E9:  CALL   14E
04EA:  MOVF   37,W
04EB:  MOVWF  77
04EC:  CLRF   37
04ED:  MOVF   36,W
04EE:  SUBWF  39,W
04EF:  BTFSS  03.2
04F0:  GOTO   4FB
04F1:  MOVF   77,W
04F2:  MOVWF  37
04F3:  MOVLW  2E
04F4:  MOVWF  3F
04F5:  CALL   14E
04F6:  MOVF   37,W
04F7:  MOVWF  77
04F8:  MOVLW  20
04F9:  ANDWF  37,F
04FA:  MOVLW  00
04FB:  MOVLW  30
04FC:  BTFSS  37.5
04FD:  GOTO   50B
04FE:  BCF    37.5
04FF:  MOVF   36,W
0500:  BTFSS  03.2
0501:  DECF   37,F
0502:  MOVF   77,W
0503:  MOVWF  37
0504:  MOVLW  2D
0505:  MOVWF  3F
0506:  CALL   14E
0507:  MOVF   37,W
0508:  MOVWF  77
0509:  CLRF   37
050A:  MOVLW  30
050B:  ADDWF  77,F
050C:  MOVF   77,W
050D:  MOVWF  3F
050E:  CALL   14E
050F:  BCF    03.1
0510:  MOVF   3E,W
0511:  MOVWF  42
0512:  MOVF   3D,W
0513:  MOVWF  41
0514:  MOVF   3C,W
0515:  MOVWF  40
0516:  MOVF   3B,W
0517:  MOVWF  3F
0518:  CLRF   46
0519:  CLRF   45
051A:  CLRF   44
051B:  MOVLW  0A
051C:  MOVWF  43
051D:  CALL   3FA
051E:  MOVF   7A,W
051F:  MOVWF  3E
0520:  MOVF   79,W
0521:  MOVWF  3D
0522:  MOVF   78,W
0523:  MOVWF  3C
0524:  MOVF   77,W
0525:  MOVWF  3B
0526:  DECFSZ 39,F
0527:  GOTO   4B1
0528:  RETURN
0529:  MOVF   33,W
052A:  MOVWF  3A
052B:  MOVF   37,W
052C:  XORWF  3A,F
052D:  BTFSS  3A.7
052E:  GOTO   534
052F:  BCF    03.2
0530:  BCF    03.0
0531:  BTFSC  33.7
0532:  BSF    03.0
0533:  GOTO   567
0534:  MOVF   33,W
0535:  MOVWF  3A
0536:  MOVF   36,W
0537:  MOVWF  3B
0538:  MOVF   32,W
0539:  SUBWF  3B,F
053A:  BTFSC  03.2
053B:  GOTO   542
053C:  BTFSS  3A.7
053D:  GOTO   567
053E:  MOVF   03,W
053F:  XORLW  01
0540:  MOVWF  03
0541:  GOTO   567
0542:  MOVF   37,W
0543:  MOVWF  3B
0544:  MOVF   33,W
0545:  SUBWF  3B,F
0546:  BTFSC  03.2
0547:  GOTO   54E
0548:  BTFSS  3A.7
0549:  GOTO   567
054A:  MOVF   03,W
054B:  XORLW  01
054C:  MOVWF  03
054D:  GOTO   567
054E:  MOVF   38,W
054F:  MOVWF  3B
0550:  MOVF   34,W
0551:  SUBWF  3B,F
0552:  BTFSC  03.2
0553:  GOTO   55A
0554:  BTFSS  3A.7
0555:  GOTO   567
0556:  MOVF   03,W
0557:  XORLW  01
0558:  MOVWF  03
0559:  GOTO   567
055A:  MOVF   39,W
055B:  MOVWF  3B
055C:  MOVF   35,W
055D:  SUBWF  3B,F
055E:  BTFSC  03.2
055F:  GOTO   566
0560:  BTFSS  3A.7
0561:  GOTO   567
0562:  MOVF   03,W
0563:  XORLW  01
0564:  MOVWF  03
0565:  GOTO   567
0566:  BCF    03.0
0567:  RETURN
....................  
.................... #list 
....................  
....................  
.................... #device ADC=10 
....................  
.................... #fuses HS,NOWDT,NOPROTECT,NOBROWNOUT,NOLVP,NOPUT,NOWRT,NOCPD,NODEBUG 
....................  
.................... #use delay (clock=4000000) 
*
0029:  MOVLW  40
002A:  MOVWF  04
002B:  BCF    03.7
002C:  MOVF   00,W
002D:  BTFSC  03.2
002E:  GOTO   03D
002F:  MOVLW  01
0030:  MOVWF  78
0031:  CLRF   77
0032:  DECFSZ 77,F
0033:  GOTO   032
0034:  DECFSZ 78,F
0035:  GOTO   031
0036:  MOVLW  4A
0037:  MOVWF  77
0038:  DECFSZ 77,F
0039:  GOTO   038
003A:  GOTO   03B
003B:  DECFSZ 00,F
003C:  GOTO   02F
003D:  RETURN
....................  
.................... #define LCD_RS_PIN PIN_B4 
.................... #define LCD_RW_PIN PIN_B3 
.................... #define LCD_ENABLE_PIN PIN_B2 
.................... #define LCD_DATA4 PIN_D7 
.................... #define LCD_DATA5 PIN_D6 
.................... #define LCD_DATA6 PIN_D5 
.................... #define LCD_DATA7 PIN_D4 
....................  
.................... #include<LCD.C> 
.................... /////////////////////////////////////////////////////////////////////////////// 
.................... ////                             LCD.C                                     //// 
.................... ////                 Driver for common LCD modules                         //// 
.................... ////                                                                       //// 
.................... ////  lcd_init()   Must be called before any other function.               //// 
.................... ////                                                                       //// 
.................... ////  lcd_putc(c)  Will display c on the next position of the LCD.         //// 
.................... ////                 \a  Set cursor position to upper left                 //// 
.................... ////                 \f  Clear display, set cursor to upper left           //// 
.................... ////                 \n  Go to start of second line                        //// 
.................... ////                 \b  Move back one position                            //// 
.................... ////              If LCD_EXTENDED_NEWLINE is defined, the \n character     //// 
.................... ////              will erase all remanining characters on the current      //// 
.................... ////              line, and move the cursor to the beginning of the next   //// 
.................... ////              line.                                                    //// 
.................... ////              If LCD_EXTENDED_NEWLINE is defined, the \r character     //// 
.................... ////              will move the cursor to the start of the current         //// 
.................... ////              line.                                                    //// 
.................... ////                                                                       //// 
.................... ////  lcd_gotoxy(x,y) Set write position on LCD (upper left is 1,1)        //// 
.................... ////                                                                       //// 
.................... ////  lcd_getc(x,y)   Returns character at position x,y on LCD             //// 
.................... ////                                                                       //// 
.................... ////  lcd_cursor_on(int1 on)   Turn the cursor on (on=TRUE) or off         //// 
.................... ////              (on=FALSE).                                              //// 
.................... ////                                                                       //// 
.................... ////  lcd_set_cgram_char(w, *p)   Write a custom character to the CGRAM.   //// 
.................... ////                                                                       //// 
.................... ////                                                                       //// 
.................... ////  CONFIGURATION                                                        //// 
.................... ////  The LCD can be configured in one of two ways: a.) port access or     //// 
.................... ////  b.) pin access.  Port access requires the entire 7 bit interface     //// 
.................... ////  connected to one GPIO port, and the data bits (D4:D7 of the LCD)     //// 
.................... ////  connected to sequential pins on the GPIO.  Pin access                //// 
.................... ////  has no requirements, all 7 bits of the control interface can         //// 
.................... ////  can be connected to any GPIO using several ports.                    //// 
.................... ////                                                                       //// 
.................... ////  To use port access, #define LCD_DATA_PORT to the SFR location of     //// 
.................... ////  of the GPIO port that holds the interface, -AND- edit LCD_PIN_MAP    //// 
.................... ////  of this file to configure the pin order.  If you are using a         //// 
.................... ////  baseline PIC (PCB), then LCD_OUTPUT_MAP and LCD_INPUT_MAP also must  //// 
.................... ////  be defined.                                                          //// 
.................... ////                                                                       //// 
.................... ////  Example of port access:                                              //// 
.................... ////     #define LCD_DATA_PORT getenv("SFR:PORTD")                         //// 
.................... ////                                                                       //// 
.................... ////  To use pin access, the following pins must be defined:               //// 
.................... ////     LCD_ENABLE_PIN                                                    //// 
.................... ////     LCD_RS_PIN                                                        //// 
.................... ////     LCD_RW_PIN                                                        //// 
.................... ////     LCD_DATA4                                                         //// 
.................... ////     LCD_DATA5                                                         //// 
.................... ////     LCD_DATA6                                                         //// 
.................... ////     LCD_DATA7                                                         //// 
.................... ////                                                                       //// 
.................... ////  Example of pin access:                                               //// 
.................... ////     #define LCD_ENABLE_PIN  PIN_E0                                    //// 
.................... ////     #define LCD_RS_PIN      PIN_E1                                    //// 
.................... ////     #define LCD_RW_PIN      PIN_E2                                    //// 
.................... ////     #define LCD_DATA4       PIN_D4                                    //// 
.................... ////     #define LCD_DATA5       PIN_D5                                    //// 
.................... ////     #define LCD_DATA6       PIN_D6                                    //// 
.................... ////     #define LCD_DATA7       PIN_D7                                    //// 
.................... ////                                                                       //// 
.................... /////////////////////////////////////////////////////////////////////////////// 
.................... ////        (C) Copyright 1996,2010 Custom Computer Services           //// 
.................... //// This source code may only be used by licensed users of the CCS C  //// 
.................... //// compiler.  This source code may only be distributed to other      //// 
.................... //// licensed users of the CCS C compiler.  No other use, reproduction //// 
.................... //// or distribution is permitted without written permission.          //// 
.................... //// Derivative programs created using this software in object code    //// 
.................... //// form are not restricted in any way.                               //// 
.................... /////////////////////////////////////////////////////////////////////////// 
....................  
.................... #ifndef __LCD_C__ 
.................... #define __LCD_C__ 
....................  
.................... // define the pinout. 
.................... // only required if port access is being used. 
.................... typedef struct   
.................... {                            // This structure is overlayed 
....................    int1 enable;           // on to an I/O port to gain 
....................    int1 rs;               // access to the LCD pins. 
....................    int1 rw;               // The bits are allocated from 
....................    int1 unused;           // low order up.  ENABLE will 
....................    unsigned int     data : 4;         // be LSB pin of that port. 
....................   #if defined(__PCD__)       // The port used will be LCD_DATA_PORT. 
....................    unsigned int    reserved: 8; 
....................   #endif 
.................... } LCD_PIN_MAP; 
....................  
.................... // this is to improve compatability with previous LCD drivers that accepted 
.................... // a define labeled 'use_portb_lcd' that configured the LCD onto port B. 
.................... #if ((defined(use_portb_lcd)) && (use_portb_lcd==TRUE)) 
....................  #define LCD_DATA_PORT getenv("SFR:PORTB") 
.................... #endif 
....................  
.................... #if defined(__PCB__) 
....................    // these definitions only need to be modified for baseline PICs. 
....................    // all other PICs use LCD_PIN_MAP or individual LCD_xxx pin definitions. 
.................... /*                                    EN, RS,   RW,   UNUSED,  DATA  */ 
....................  const LCD_PIN_MAP LCD_OUTPUT_MAP =  {0,  0,    0,    0,       0}; 
....................  const LCD_PIN_MAP LCD_INPUT_MAP =   {0,  0,    0,    0,       0xF}; 
.................... #endif 
....................  
.................... ////////////////////// END CONFIGURATION /////////////////////////////////// 
....................  
.................... #ifndef LCD_ENABLE_PIN 
....................    #define lcd_output_enable(x) lcdlat.enable=x 
....................    #define lcd_enable_tris()   lcdtris.enable=0 
.................... #else 
....................    #define lcd_output_enable(x) output_bit(LCD_ENABLE_PIN, x) 
....................    #define lcd_enable_tris()  output_drive(LCD_ENABLE_PIN) 
.................... #endif 
....................  
.................... #ifndef LCD_RS_PIN 
....................    #define lcd_output_rs(x) lcdlat.rs=x 
....................    #define lcd_rs_tris()   lcdtris.rs=0 
.................... #else 
....................    #define lcd_output_rs(x) output_bit(LCD_RS_PIN, x) 
....................    #define lcd_rs_tris()  output_drive(LCD_RS_PIN) 
.................... #endif 
....................  
.................... #ifndef LCD_RW_PIN 
....................    #define lcd_output_rw(x) lcdlat.rw=x 
....................    #define lcd_rw_tris()   lcdtris.rw=0 
.................... #else 
....................    #define lcd_output_rw(x) output_bit(LCD_RW_PIN, x) 
....................    #define lcd_rw_tris()  output_drive(LCD_RW_PIN) 
.................... #endif 
....................  
.................... // original version of this library incorrectly labeled LCD_DATA0 as LCD_DATA4, 
.................... // LCD_DATA1 as LCD_DATA5, and so on.  this block of code makes the driver 
.................... // compatible with any code written for the original library 
.................... #if (defined(LCD_DATA0) && defined(LCD_DATA1) && defined(LCD_DATA2) && defined(LCD_DATA3) && !defined(LCD_DATA4) && !defined(LCD_DATA5) && !defined(LCD_DATA6) && !defined(LCD_DATA7)) 
....................    #define  LCD_DATA4    LCD_DATA0 
....................    #define  LCD_DATA5    LCD_DATA1 
....................    #define  LCD_DATA6    LCD_DATA2 
....................    #define  LCD_DATA7    LCD_DATA3 
.................... #endif 
....................  
.................... #ifndef LCD_DATA4 
.................... #ifndef LCD_DATA_PORT 
....................    #if defined(__PCB__) 
....................       #define LCD_DATA_PORT      0x06     //portb 
....................       #define set_tris_lcd(x)   set_tris_b(x) 
....................    #else 
....................      #if defined(PIN_D0) 
....................       #define LCD_DATA_PORT      getenv("SFR:PORTD")     //portd 
....................      #else 
....................       #define LCD_DATA_PORT      getenv("SFR:PORTB")     //portb 
....................      #endif 
....................    #endif    
.................... #endif 
....................  
.................... #if defined(__PCB__) 
....................    LCD_PIN_MAP lcd, lcdlat; 
....................    #byte lcd = LCD_DATA_PORT 
....................    #byte lcdlat = LCD_DATA_PORT 
.................... #elif defined(__PCM__) 
....................    LCD_PIN_MAP lcd, lcdlat, lcdtris; 
....................    #byte lcd = LCD_DATA_PORT 
....................    #byte lcdlat = LCD_DATA_PORT 
....................    #byte lcdtris = LCD_DATA_PORT+0x80 
.................... #elif defined(__PCH__) 
....................    LCD_PIN_MAP lcd, lcdlat, lcdtris; 
....................    #byte lcd = LCD_DATA_PORT 
....................    #byte lcdlat = LCD_DATA_PORT+9 
....................    #byte lcdtris = LCD_DATA_PORT+0x12 
.................... #elif defined(__PCD__) 
....................    LCD_PIN_MAP lcd, lcdlat, lcdtris; 
....................    #word lcd = LCD_DATA_PORT 
....................    #word lcdlat = LCD_DATA_PORT+2 
....................    #word lcdtris = LCD_DATA_PORT-0x02 
.................... #endif 
.................... #endif   //LCD_DATA4 not defined 
....................  
.................... #ifndef LCD_TYPE 
....................    #define LCD_TYPE 2           // 0=5x7, 1=5x10, 2=2 lines 
.................... #endif 
....................  
.................... #ifndef LCD_LINE_TWO 
....................    #define LCD_LINE_TWO 0x40    // LCD RAM address for the second line 
.................... #endif 
....................  
.................... #ifndef LCD_LINE_LENGTH 
....................    #define LCD_LINE_LENGTH 20 
.................... #endif 
....................  
.................... unsigned int8 lcd_read_nibble(void); 
....................  
.................... unsigned int8 lcd_read_byte(void) 
.................... { 
....................    unsigned int8 low,high; 
....................  
....................  #if defined(__PCB__) 
....................    set_tris_lcd(LCD_INPUT_MAP); 
....................  #else 
....................   #if (defined(LCD_DATA4) && defined(LCD_DATA5) && defined(LCD_DATA6) && defined(LCD_DATA7)) 
....................    output_float(LCD_DATA4); 
*
00A2:  BSF    08.7
....................    output_float(LCD_DATA5); 
00A3:  BSF    08.6
....................    output_float(LCD_DATA6); 
00A4:  BSF    08.5
....................    output_float(LCD_DATA7); 
00A5:  BSF    08.4
....................   #else 
....................    lcdtris.data = 0xF; 
....................   #endif 
....................  #endif 
....................          
....................    lcd_output_rw(1); 
00A6:  BCF    03.5
00A7:  BSF    06.3
00A8:  BSF    03.5
00A9:  BCF    06.3
....................    delay_cycles(1); 
00AA:  NOP
....................    lcd_output_enable(1); 
00AB:  BCF    03.5
00AC:  BSF    06.2
00AD:  BSF    03.5
00AE:  BCF    06.2
....................    delay_cycles(1); 
00AF:  NOP
....................    high = lcd_read_nibble(); 
00B0:  BCF    03.5
00B1:  CALL   069
00B2:  MOVF   78,W
00B3:  MOVWF  47
....................        
....................    lcd_output_enable(0); 
00B4:  BCF    06.2
00B5:  BSF    03.5
00B6:  BCF    06.2
....................    delay_cycles(1); 
00B7:  NOP
....................    lcd_output_enable(1); 
00B8:  BCF    03.5
00B9:  BSF    06.2
00BA:  BSF    03.5
00BB:  BCF    06.2
....................    delay_us(1); 
00BC:  NOP
....................    low = lcd_read_nibble(); 
00BD:  BCF    03.5
00BE:  CALL   069
00BF:  MOVF   78,W
00C0:  MOVWF  46
....................        
....................    lcd_output_enable(0); 
00C1:  BCF    06.2
00C2:  BSF    03.5
00C3:  BCF    06.2
....................  
....................  #if defined(__PCB__) 
....................    set_tris_lcd(LCD_OUTPUT_MAP); 
....................  #else 
....................   #if (defined(LCD_DATA4) && defined(LCD_DATA5) && defined(LCD_DATA6) && defined(LCD_DATA7)) 
....................    output_drive(LCD_DATA4); 
00C4:  BCF    08.7
....................    output_drive(LCD_DATA5); 
00C5:  BCF    08.6
....................    output_drive(LCD_DATA6); 
00C6:  BCF    08.5
....................    output_drive(LCD_DATA7); 
00C7:  BCF    08.4
....................   #else 
....................    lcdtris.data = 0x0; 
....................   #endif 
....................  #endif 
....................  
....................    return( (high<<4) | low); 
00C8:  BCF    03.5
00C9:  SWAPF  47,W
00CA:  MOVWF  77
00CB:  MOVLW  F0
00CC:  ANDWF  77,F
00CD:  MOVF   77,W
00CE:  IORWF  46,W
00CF:  MOVWF  78
.................... } 
....................  
.................... unsigned int8 lcd_read_nibble(void) 
.................... { 
....................   #if (defined(LCD_DATA4) && defined(LCD_DATA5) && defined(LCD_DATA6) && defined(LCD_DATA7)) 
*
0069:  CLRF   48
....................    unsigned int8 n = 0x00; 
....................  
....................    /* Read the data port */ 
....................    n |= input(LCD_DATA4); 
006A:  BSF    03.5
006B:  BSF    08.7
006C:  MOVLW  00
006D:  BCF    03.5
006E:  BTFSC  08.7
006F:  MOVLW  01
0070:  IORWF  48,F
....................    n |= input(LCD_DATA5) << 1; 
0071:  BSF    03.5
0072:  BSF    08.6
0073:  MOVLW  00
0074:  BCF    03.5
0075:  BTFSC  08.6
0076:  MOVLW  01
0077:  MOVWF  77
0078:  BCF    03.0
0079:  RLF    77,F
007A:  MOVF   77,W
007B:  IORWF  48,F
....................    n |= input(LCD_DATA6) << 2; 
007C:  BSF    03.5
007D:  BSF    08.5
007E:  MOVLW  00
007F:  BCF    03.5
0080:  BTFSC  08.5
0081:  MOVLW  01
0082:  MOVWF  77
0083:  RLF    77,F
0084:  RLF    77,F
0085:  MOVLW  FC
0086:  ANDWF  77,F
0087:  MOVF   77,W
0088:  IORWF  48,F
....................    n |= input(LCD_DATA7) << 3; 
0089:  BSF    03.5
008A:  BSF    08.4
008B:  MOVLW  00
008C:  BCF    03.5
008D:  BTFSC  08.4
008E:  MOVLW  01
008F:  MOVWF  77
0090:  RLF    77,F
0091:  RLF    77,F
0092:  RLF    77,F
0093:  MOVLW  F8
0094:  ANDWF  77,F
0095:  MOVF   77,W
0096:  IORWF  48,F
....................     
....................    return(n); 
0097:  MOVF   48,W
0098:  MOVWF  78
....................   #else 
0099:  RETURN
....................    return(lcd.data); 
....................   #endif 
.................... } 
....................  
.................... void lcd_send_nibble(unsigned int8 n) 
.................... { 
....................   #if (defined(LCD_DATA4) && defined(LCD_DATA5) && defined(LCD_DATA6) && defined(LCD_DATA7)) 
....................    /* Write to the data port */ 
....................    output_bit(LCD_DATA4, bit_test(n, 0)); 
*
003E:  BTFSC  47.0
003F:  GOTO   042
0040:  BCF    08.7
0041:  GOTO   043
0042:  BSF    08.7
0043:  BSF    03.5
0044:  BCF    08.7
....................    output_bit(LCD_DATA5, bit_test(n, 1)); 
0045:  BCF    03.5
0046:  BTFSC  47.1
0047:  GOTO   04A
0048:  BCF    08.6
0049:  GOTO   04B
004A:  BSF    08.6
004B:  BSF    03.5
004C:  BCF    08.6
....................    output_bit(LCD_DATA6, bit_test(n, 2)); 
004D:  BCF    03.5
004E:  BTFSC  47.2
004F:  GOTO   052
0050:  BCF    08.5
0051:  GOTO   053
0052:  BSF    08.5
0053:  BSF    03.5
0054:  BCF    08.5
....................    output_bit(LCD_DATA7, bit_test(n, 3)); 
0055:  BCF    03.5
0056:  BTFSC  47.3
0057:  GOTO   05A
0058:  BCF    08.4
0059:  GOTO   05B
005A:  BSF    08.4
005B:  BSF    03.5
005C:  BCF    08.4
....................   #else       
....................    lcdlat.data = n; 
....................   #endif 
....................        
....................    delay_cycles(1); 
005D:  NOP
....................    lcd_output_enable(1); 
005E:  BCF    03.5
005F:  BSF    06.2
0060:  BSF    03.5
0061:  BCF    06.2
....................    delay_us(2); 
0062:  GOTO   063
....................    lcd_output_enable(0); 
0063:  BCF    03.5
0064:  BCF    06.2
0065:  BSF    03.5
0066:  BCF    06.2
0067:  BCF    03.5
0068:  RETURN
.................... } 
....................  
.................... void lcd_send_byte(unsigned int8 address, unsigned int8 n) 
.................... { 
....................   #if defined(__PCB__) 
....................    set_tris_lcd(LCD_OUTPUT_MAP); 
....................   #else 
....................    lcd_enable_tris(); 
*
009A:  BSF    03.5
009B:  BCF    06.2
....................    lcd_rs_tris(); 
009C:  BCF    06.4
....................    lcd_rw_tris(); 
009D:  BCF    06.3
....................   #endif 
....................  
....................    lcd_output_rs(0); 
009E:  BCF    03.5
009F:  BCF    06.4
00A0:  BSF    03.5
00A1:  BCF    06.4
....................    while ( bit_test(lcd_read_byte(),7) ) ; 
*
00D0:  MOVF   78,W
00D1:  MOVWF  46
00D2:  BTFSS  46.7
00D3:  GOTO   0D6
00D4:  BSF    03.5
00D5:  GOTO   0A2
....................    lcd_output_rs(address); 
00D6:  MOVF   44,F
00D7:  BTFSS  03.2
00D8:  GOTO   0DB
00D9:  BCF    06.4
00DA:  GOTO   0DC
00DB:  BSF    06.4
00DC:  BSF    03.5
00DD:  BCF    06.4
....................    delay_cycles(1); 
00DE:  NOP
....................    lcd_output_rw(0); 
00DF:  BCF    03.5
00E0:  BCF    06.3
00E1:  BSF    03.5
00E2:  BCF    06.3
....................    delay_cycles(1); 
00E3:  NOP
....................    lcd_output_enable(0); 
00E4:  BCF    03.5
00E5:  BCF    06.2
00E6:  BSF    03.5
00E7:  BCF    06.2
....................    lcd_send_nibble(n >> 4); 
00E8:  BCF    03.5
00E9:  SWAPF  45,W
00EA:  MOVWF  46
00EB:  MOVLW  0F
00EC:  ANDWF  46,F
00ED:  MOVF   46,W
00EE:  MOVWF  47
00EF:  CALL   03E
....................    lcd_send_nibble(n & 0xf); 
00F0:  MOVF   45,W
00F1:  ANDLW  0F
00F2:  MOVWF  46
00F3:  MOVWF  47
00F4:  CALL   03E
00F5:  RETURN
.................... } 
....................  
.................... #if defined(LCD_EXTENDED_NEWLINE) 
.................... unsigned int8 g_LcdX, g_LcdY; 
.................... #endif 
....................  
.................... void lcd_init(void)  
.................... { 
....................    unsigned int8 i; 
....................    unsigned int8 LCD_INIT_STRING[4] = {0x20 | (LCD_TYPE << 2), 0xc, 1, 6}; 
00F6:  MOVLW  28
00F7:  MOVWF  33
00F8:  MOVLW  0C
00F9:  MOVWF  34
00FA:  MOVLW  01
00FB:  MOVWF  35
00FC:  MOVLW  06
00FD:  MOVWF  36
....................                              // These bytes need to be sent to the LCD 
....................                              // to start it up. 
....................     
....................  
....................    lcd_output_enable(0); 
00FE:  BCF    06.2
00FF:  BSF    03.5
0100:  BCF    06.2
....................    lcd_output_rs(0); 
0101:  BCF    03.5
0102:  BCF    06.4
0103:  BSF    03.5
0104:  BCF    06.4
....................    lcd_output_rw(0); 
0105:  BCF    03.5
0106:  BCF    06.3
0107:  BSF    03.5
0108:  BCF    06.3
....................  
....................  #if defined(__PCB__) 
....................    set_tris_lcd(LCD_OUTPUT_MAP); 
....................  #else 
....................   #if (defined(LCD_DATA4) && defined(LCD_DATA5) && defined(LCD_DATA6) && defined(LCD_DATA7)) 
....................    output_drive(LCD_DATA4); 
0109:  BCF    08.7
....................    output_drive(LCD_DATA5); 
010A:  BCF    08.6
....................    output_drive(LCD_DATA6); 
010B:  BCF    08.5
....................    output_drive(LCD_DATA7); 
010C:  BCF    08.4
....................   #else 
....................    lcdtris.data = 0x0; 
....................   #endif 
....................    lcd_enable_tris(); 
010D:  BCF    06.2
....................    lcd_rs_tris(); 
010E:  BCF    06.4
....................    lcd_rw_tris(); 
010F:  BCF    06.3
....................  #endif 
....................      
....................    delay_ms(15); 
0110:  MOVLW  0F
0111:  BCF    03.5
0112:  MOVWF  40
0113:  CALL   029
....................    for(i=1;i<=3;++i) 
0114:  MOVLW  01
0115:  MOVWF  32
0116:  MOVF   32,W
0117:  SUBLW  03
0118:  BTFSS  03.0
0119:  GOTO   122
....................    { 
....................        lcd_send_nibble(3); 
011A:  MOVLW  03
011B:  MOVWF  47
011C:  CALL   03E
....................        delay_ms(5); 
011D:  MOVLW  05
011E:  MOVWF  40
011F:  CALL   029
0120:  INCF   32,F
0121:  GOTO   116
....................    } 
....................     
....................    lcd_send_nibble(2); 
0122:  MOVLW  02
0123:  MOVWF  47
0124:  CALL   03E
....................    delay_ms(5); 
0125:  MOVLW  05
0126:  MOVWF  40
0127:  CALL   029
....................    for(i=0;i<=3;++i) 
0128:  CLRF   32
0129:  MOVF   32,W
012A:  SUBLW  03
012B:  BTFSS  03.0
012C:  GOTO   139
....................       lcd_send_byte(0,LCD_INIT_STRING[i]); 
012D:  MOVLW  33
012E:  ADDWF  32,W
012F:  MOVWF  04
0130:  BCF    03.7
0131:  MOVF   00,W
0132:  MOVWF  37
0133:  CLRF   44
0134:  MOVF   37,W
0135:  MOVWF  45
0136:  CALL   09A
....................  
....................   #if defined(LCD_EXTENDED_NEWLINE) 
0137:  INCF   32,F
0138:  GOTO   129
0139:  BCF    0A.3
013A:  BCF    0A.4
013B:  GOTO   599 (RETURN)
....................    g_LcdX = 0; 
....................    g_LcdY = 0; 
....................   #endif 
.................... } 
....................  
.................... void lcd_gotoxy(unsigned int8 x, unsigned int8 y) 
.................... { 
....................    unsigned int8 address; 
....................     
....................    if(y!=1) 
013C:  DECFSZ 41,W
013D:  GOTO   13F
013E:  GOTO   142
....................       address=LCD_LINE_TWO; 
013F:  MOVLW  40
0140:  MOVWF  42
0141:  GOTO   143
....................    else 
....................       address=0; 
0142:  CLRF   42
....................       
....................    address+=x-1; 
0143:  MOVLW  01
0144:  SUBWF  40,W
0145:  ADDWF  42,F
....................    lcd_send_byte(0,0x80|address); 
0146:  MOVF   42,W
0147:  IORLW  80
0148:  MOVWF  43
0149:  CLRF   44
014A:  MOVF   43,W
014B:  MOVWF  45
014C:  CALL   09A
....................  
....................   #if defined(LCD_EXTENDED_NEWLINE) 
014D:  RETURN
....................    g_LcdX = x - 1; 
....................    g_LcdY = y - 1; 
....................   #endif 
.................... } 
....................  
.................... void lcd_putc(char c) 
.................... { 
....................    switch (c) 
014E:  MOVF   3F,W
014F:  XORLW  07
0150:  BTFSC  03.2
0151:  GOTO   15C
0152:  XORLW  0B
0153:  BTFSC  03.2
0154:  GOTO   161
0155:  XORLW  06
0156:  BTFSC  03.2
0157:  GOTO   169
0158:  XORLW  02
0159:  BTFSC  03.2
015A:  GOTO   16F
015B:  GOTO   174
....................    { 
....................       case '\a'   :  lcd_gotoxy(1,1);     break; 
015C:  MOVLW  01
015D:  MOVWF  40
015E:  MOVWF  41
015F:  CALL   13C
0160:  GOTO   179
....................  
....................       case '\f'   :  lcd_send_byte(0,1); 
0161:  CLRF   44
0162:  MOVLW  01
0163:  MOVWF  45
0164:  CALL   09A
....................                      delay_ms(2); 
0165:  MOVLW  02
0166:  MOVWF  40
0167:  CALL   029
....................                     #if defined(LCD_EXTENDED_NEWLINE) 
....................                      g_LcdX = 0; 
....................                      g_LcdY = 0; 
....................                     #endif 
....................                      break; 
0168:  GOTO   179
....................  
....................      #if defined(LCD_EXTENDED_NEWLINE) 
....................       case '\r'   :  lcd_gotoxy(1, g_LcdY+1);   break; 
....................       case '\n'   : 
....................          while (g_LcdX++ < LCD_LINE_LENGTH) 
....................          { 
....................             lcd_send_byte(1, ' '); 
....................          } 
....................          lcd_gotoxy(1, g_LcdY+2); 
....................          break; 
....................      #else 
....................       case '\n'   : lcd_gotoxy(1,2);        break; 
0169:  MOVLW  01
016A:  MOVWF  40
016B:  MOVLW  02
016C:  MOVWF  41
016D:  CALL   13C
016E:  GOTO   179
....................      #endif 
....................       
....................       case '\b'   : lcd_send_byte(0,0x10);  break; 
016F:  CLRF   44
0170:  MOVLW  10
0171:  MOVWF  45
0172:  CALL   09A
0173:  GOTO   179
....................       
....................      #if defined(LCD_EXTENDED_NEWLINE) 
....................       default     :  
....................          if (g_LcdX < LCD_LINE_LENGTH) 
....................          { 
....................             lcd_send_byte(1, c); 
....................             g_LcdX++; 
....................          } 
....................          break; 
....................      #else 
....................       default     : lcd_send_byte(1,c);     break; 
0174:  MOVLW  01
0175:  MOVWF  44
0176:  MOVF   3F,W
0177:  MOVWF  45
0178:  CALL   09A
....................      #endif 
....................    } 
0179:  RETURN
.................... } 
....................   
.................... char lcd_getc(unsigned int8 x, unsigned int8 y) 
.................... { 
....................    char value; 
....................  
....................    lcd_gotoxy(x,y); 
....................    while ( bit_test(lcd_read_byte(),7) ); // wait until busy flag is low 
....................    lcd_output_rs(1); 
....................    value = lcd_read_byte(); 
....................    lcd_output_rs(0); 
....................     
....................    return(value); 
.................... } 
....................  
.................... // write a custom character to the ram 
.................... // which is 0-7 and specifies which character array we are modifying. 
.................... // ptr points to an array of 8 bytes, where each byte is the next row of 
.................... //    pixels.  only bits 0-4 are used.  the last row is the cursor row, and 
.................... //    usually you will want to leave this byte 0x00. 
.................... void lcd_set_cgram_char(unsigned int8 which, unsigned int8 *ptr) 
.................... { 
....................    unsigned int i; 
....................  
....................    which <<= 3; 
....................    which &= 0x38; 
....................  
....................    lcd_send_byte(0, 0x40 | which);  //set cgram address 
....................  
....................    for(i=0; i<8; i++) 
....................    { 
....................       lcd_send_byte(1, *ptr++); 
....................    } 
....................    
....................    #if defined(LCD_EXTENDED_NEWLINE) 
....................     lcd_gotoxy(g_LcdX+1, g_LcdY+1);  //set ddram address 
....................    #endif 
.................... } 
....................  
.................... void lcd_cursor_on(int1 on) 
.................... { 
....................    if (on) 
....................    { 
....................       lcd_send_byte(0,0x0F);           //turn LCD cursor ON 
....................    } 
....................    else 
....................    { 
....................       lcd_send_byte(0,0x0C);           //turn LCD cursor OFF 
....................    } 
.................... } 
....................  
.................... #endif 
....................  
.................... unsigned long int sens0; 
.................... unsigned long int pot0; 
....................  
.................... float voltaj; 
.................... float sicaklik0; 
.................... float set_temp0; 
.................... char stat0; 
....................  
.................... void main(){ 
*
0568:  MOVF   03,W
0569:  ANDLW  1F
056A:  MOVWF  03
056B:  MOVLW  FF
056C:  MOVWF  31
056D:  BSF    03.5
056E:  BSF    1F.0
056F:  BSF    1F.1
0570:  BSF    1F.2
0571:  BCF    1F.3
0572:  MOVLW  07
0573:  MOVWF  1C
0574:  BCF    03.7
....................     setup_psp(PSP_DISABLED); 
0575:  BCF    09.4
....................     setup_timer_1(T1_DISABLED); 
0576:  BCF    03.5
0577:  CLRF   10
....................     setup_timer_2(T2_DISABLED,0,1); 
0578:  MOVLW  00
0579:  MOVWF  78
057A:  MOVWF  12
057B:  MOVLW  00
057C:  BSF    03.5
057D:  MOVWF  12
....................     setup_ccp1(CCP_OFF); 
057E:  MOVLW  F0
057F:  BCF    03.5
0580:  ANDWF  17,F
....................     setup_ccp2(CCP_OFF); 
0581:  ANDWF  1D,F
....................      
....................     set_tris_a(0xFF); 
0582:  MOVLW  FF
0583:  BSF    03.5
0584:  MOVWF  05
....................     set_tris_c(0x00); 
0585:  MOVLW  00
0586:  MOVWF  07
0587:  BCF    03.5
0588:  MOVWF  31
....................      
....................     setup_adc(ADC_CLOCK_DIV_32); 
0589:  BSF    03.5
058A:  BCF    1F.6
058B:  BCF    03.5
058C:  BCF    1F.6
058D:  BSF    1F.7
058E:  BSF    03.5
058F:  BSF    1F.7
0590:  BCF    03.5
0591:  BSF    1F.0
....................     setup_adc_ports(ALL_ANALOG); 
0592:  BSF    03.5
0593:  BCF    1F.0
0594:  BCF    1F.1
0595:  BCF    1F.2
0596:  BCF    1F.3
....................      
....................     lcd_init(); 
0597:  BCF    03.5
0598:  GOTO   0F6
....................     printf(lcd_putc,"\f     DEMETER "); 
0599:  MOVLW  04
059A:  BSF    03.6
059B:  MOVWF  0D
059C:  MOVLW  00
059D:  MOVWF  0F
059E:  BCF    03.6
059F:  CALL   17A
....................     printf(lcd_putc,"\n   version 0.01"); 
05A0:  MOVLW  0C
05A1:  BSF    03.6
05A2:  MOVWF  0D
05A3:  MOVLW  00
05A4:  MOVWF  0F
05A5:  BCF    03.6
05A6:  CALL   17A
....................     delay_ms(1500); 
05A7:  MOVLW  06
05A8:  MOVWF  32
05A9:  MOVLW  FA
05AA:  MOVWF  40
05AB:  CALL   029
05AC:  DECFSZ 32,F
05AD:  GOTO   5A9
....................      
....................     while(1){ 
....................         set_adc_channel(4); 
05AE:  MOVLW  20
05AF:  MOVWF  78
05B0:  MOVF   1F,W
05B1:  ANDLW  C7
05B2:  IORWF  78,W
05B3:  MOVWF  1F
....................         delay_ms(100); 
05B4:  MOVLW  64
05B5:  MOVWF  40
05B6:  CALL   029
....................         sens0 = read_adc(); 
05B7:  BSF    1F.2
05B8:  BTFSC  1F.2
05B9:  GOTO   5B8
05BA:  BSF    03.5
05BB:  MOVF   1E,W
05BC:  BCF    03.5
05BD:  MOVWF  20
05BE:  MOVF   1E,W
05BF:  MOVWF  21
....................         sicaklik0 = sens0*0.4883; 
05C0:  MOVF   21,W
05C1:  MOVWF  33
05C2:  MOVF   20,W
05C3:  MOVWF  32
05C4:  CALL   1D0
05C5:  MOVF   7A,W
05C6:  MOVWF  42
05C7:  MOVF   79,W
05C8:  MOVWF  41
05C9:  MOVF   78,W
05CA:  MOVWF  40
05CB:  MOVF   77,W
05CC:  MOVWF  3F
05CD:  MOVLW  75
05CE:  MOVWF  46
05CF:  MOVLW  02
05D0:  MOVWF  45
05D1:  MOVLW  7A
05D2:  MOVWF  44
05D3:  MOVLW  7D
05D4:  MOVWF  43
05D5:  CALL   1ED
05D6:  MOVF   7A,W
05D7:  MOVWF  2B
05D8:  MOVF   79,W
05D9:  MOVWF  2A
05DA:  MOVF   78,W
05DB:  MOVWF  29
05DC:  MOVF   77,W
05DD:  MOVWF  28
....................          
....................         set_adc_channel(7); 
05DE:  MOVLW  38
05DF:  MOVWF  78
05E0:  MOVF   1F,W
05E1:  ANDLW  C7
05E2:  IORWF  78,W
05E3:  MOVWF  1F
....................         delay_ms(100); 
05E4:  MOVLW  64
05E5:  MOVWF  40
05E6:  CALL   029
....................         pot0 = read_adc(); 
05E7:  BSF    1F.2
05E8:  BTFSC  1F.2
05E9:  GOTO   5E8
05EA:  BSF    03.5
05EB:  MOVF   1E,W
05EC:  BCF    03.5
05ED:  MOVWF  22
05EE:  MOVF   1E,W
05EF:  MOVWF  23
....................         set_temp0 = pot0*0.02441+5; 
05F0:  MOVF   23,W
05F1:  MOVWF  33
05F2:  MOVF   22,W
05F3:  MOVWF  32
05F4:  CALL   1D0
05F5:  MOVF   7A,W
05F6:  MOVWF  42
05F7:  MOVF   79,W
05F8:  MOVWF  41
05F9:  MOVF   78,W
05FA:  MOVWF  40
05FB:  MOVF   77,W
05FC:  MOVWF  3F
05FD:  MOVLW  7B
05FE:  MOVWF  46
05FF:  MOVLW  F7
0600:  MOVWF  45
0601:  MOVLW  47
0602:  MOVWF  44
0603:  MOVLW  79
0604:  MOVWF  43
0605:  CALL   1ED
0606:  MOVF   7A,W
0607:  MOVWF  35
0608:  MOVF   79,W
0609:  MOVWF  34
060A:  MOVF   78,W
060B:  MOVWF  33
060C:  MOVF   77,W
060D:  MOVWF  32
060E:  BCF    03.1
060F:  MOVF   7A,W
0610:  MOVWF  39
0611:  MOVF   79,W
0612:  MOVWF  38
0613:  MOVF   78,W
0614:  MOVWF  37
0615:  MOVF   77,W
0616:  MOVWF  36
0617:  CLRF   3D
0618:  CLRF   3C
0619:  MOVLW  20
061A:  MOVWF  3B
061B:  MOVLW  81
061C:  MOVWF  3A
061D:  CALL   262
061E:  MOVF   7A,W
061F:  MOVWF  2F
0620:  MOVF   79,W
0621:  MOVWF  2E
0622:  MOVF   78,W
0623:  MOVWF  2D
0624:  MOVF   77,W
0625:  MOVWF  2C
....................        
....................         printf(lcd_putc,"\fT0=%4.1f S=%4.1f  ",sicaklik0,set_temp0); 
0626:  MOVLW  15
0627:  BSF    03.6
0628:  MOVWF  0D
0629:  MOVLW  00
062A:  MOVWF  0F
062B:  BCF    03.0
062C:  MOVLW  04
062D:  BCF    03.6
062E:  MOVWF  32
062F:  CALL   3A3
0630:  MOVLW  03
0631:  MOVWF  04
0632:  MOVF   2B,W
0633:  MOVWF  35
0634:  MOVF   2A,W
0635:  MOVWF  34
0636:  MOVF   29,W
0637:  MOVWF  33
0638:  MOVF   28,W
0639:  MOVWF  32
063A:  MOVLW  01
063B:  MOVWF  36
063C:  CALL   449
063D:  MOVLW  20
063E:  MOVWF  3F
063F:  CALL   14E
0640:  MOVLW  53
0641:  MOVWF  3F
0642:  CALL   14E
0643:  MOVLW  3D
0644:  MOVWF  3F
0645:  CALL   14E
0646:  MOVLW  03
0647:  MOVWF  04
0648:  MOVF   2F,W
0649:  MOVWF  35
064A:  MOVF   2E,W
064B:  MOVWF  34
064C:  MOVF   2D,W
064D:  MOVWF  33
064E:  MOVF   2C,W
064F:  MOVWF  32
0650:  MOVLW  01
0651:  MOVWF  36
0652:  CALL   449
0653:  MOVLW  20
0654:  MOVWF  3F
0655:  CALL   14E
0656:  MOVLW  20
0657:  MOVWF  3F
0658:  CALL   14E
....................         printf(lcd_putc,"\nRelay %c         ",stat0); 
0659:  MOVLW  1F
065A:  BSF    03.6
065B:  MOVWF  0D
065C:  MOVLW  00
065D:  MOVWF  0F
065E:  BCF    03.0
065F:  MOVLW  07
0660:  BCF    03.6
0661:  MOVWF  32
0662:  CALL   3A3
0663:  MOVF   30,W
0664:  MOVWF  3F
0665:  CALL   14E
0666:  MOVLW  23
0667:  BSF    03.6
0668:  MOVWF  0D
0669:  MOVLW  00
066A:  MOVWF  0F
066B:  BSF    03.0
066C:  MOVLW  09
066D:  BCF    03.6
066E:  MOVWF  32
066F:  CALL   3A3
....................         delay_ms(1000); 
0670:  MOVLW  04
0671:  MOVWF  32
0672:  MOVLW  FA
0673:  MOVWF  40
0674:  CALL   029
0675:  DECFSZ 32,F
0676:  GOTO   672
....................          
....................         if(sicaklik0<(set_temp0-0.5)){ 
0677:  BSF    03.1
0678:  MOVF   2F,W
0679:  MOVWF  39
067A:  MOVF   2E,W
067B:  MOVWF  38
067C:  MOVF   2D,W
067D:  MOVWF  37
067E:  MOVF   2C,W
067F:  MOVWF  36
0680:  CLRF   3D
0681:  CLRF   3C
0682:  CLRF   3B
0683:  MOVLW  7E
0684:  MOVWF  3A
0685:  CALL   262
0686:  MOVF   2B,W
0687:  MOVWF  35
0688:  MOVF   2A,W
0689:  MOVWF  34
068A:  MOVF   29,W
068B:  MOVWF  33
068C:  MOVF   28,W
068D:  MOVWF  32
068E:  MOVF   7A,W
068F:  MOVWF  39
0690:  MOVF   79,W
0691:  MOVWF  38
0692:  MOVF   78,W
0693:  MOVWF  37
0694:  MOVF   77,W
0695:  MOVWF  36
0696:  CALL   529
0697:  BTFSS  03.0
0698:  GOTO   6A7
....................             output_bit(PIN_D1,1); 
0699:  BSF    08.1
069A:  BSF    03.5
069B:  BCF    08.1
....................             stat0='1'; 
069C:  MOVLW  31
069D:  BCF    03.5
069E:  MOVWF  30
....................             lcd_gotoxy(16,1); 
069F:  MOVLW  10
06A0:  MOVWF  40
06A1:  MOVLW  01
06A2:  MOVWF  41
06A3:  CALL   13C
....................             lcd_putc(0); 
06A4:  CLRF   3F
06A5:  CALL   14E
....................         } 
06A6:  GOTO   6CF
....................         else if(sicaklik0>(set_temp0+0.5)){ 
06A7:  BCF    03.1
06A8:  MOVF   2F,W
06A9:  MOVWF  39
06AA:  MOVF   2E,W
06AB:  MOVWF  38
06AC:  MOVF   2D,W
06AD:  MOVWF  37
06AE:  MOVF   2C,W
06AF:  MOVWF  36
06B0:  CLRF   3D
06B1:  CLRF   3C
06B2:  CLRF   3B
06B3:  MOVLW  7E
06B4:  MOVWF  3A
06B5:  CALL   262
06B6:  MOVF   7A,W
06B7:  MOVWF  35
06B8:  MOVF   79,W
06B9:  MOVWF  34
06BA:  MOVF   78,W
06BB:  MOVWF  33
06BC:  MOVF   77,W
06BD:  MOVWF  32
06BE:  MOVF   2B,W
06BF:  MOVWF  39
06C0:  MOVF   2A,W
06C1:  MOVWF  38
06C2:  MOVF   29,W
06C3:  MOVWF  37
06C4:  MOVF   28,W
06C5:  MOVWF  36
06C6:  CALL   529
06C7:  BTFSS  03.0
06C8:  GOTO   6CF
....................             output_bit(PIN_D1,0); 
06C9:  BCF    08.1
06CA:  BSF    03.5
06CB:  BCF    08.1
....................             stat0='0';         
06CC:  MOVLW  30
06CD:  BCF    03.5
06CE:  MOVWF  30
....................         } 
06CF:  GOTO   5AE
....................     } 
.................... } 
....................      
06D0:  SLEEP
....................  
....................  

Configuration Fuses:
   Word  1: 3F3A   HS NOWDT NOPUT NOBROWNOUT NOLVP NOCPD NOWRT NODEBUG NOPROTECT
