(module TC1602A (layer F.Cu) (tedit 5A371057)
  (fp_text reference TC1602A (at 6.3754 2.84988) (layer F.SilkS)
    (effects (font (thickness 0.3048)))
  )
  (fp_text value LCD** (at -3.79984 2.27584) (layer F.SilkS)
    (effects (font (thickness 0.3048)))
  )
  (fp_line (start 75.5904 -31.5468) (end 4.6736 -31.5468) (layer F.SilkS) (width 0.381))
  (fp_text user "LCD - Display" (at 41.1988 -23.4696) (layer F.SilkS)
    (effects (font (size 2.99974 2.99974) (thickness 0.3048)))
  )
  (fp_text user "2 x 16 Characters" (at 42.3672 -13.3096) (layer F.SilkS)
    (effects (font (size 2.99974 2.99974) (thickness 0.3048)))
  )
  (fp_line (start 4.6736 -4.318) (end 75.5904 -4.318) (layer F.SilkS) (width 0.381))
  (fp_line (start 75.5904 -4.318) (end 75.5904 -31.5468) (layer F.SilkS) (width 0.381))
  (fp_line (start 4.6736 -4.318) (end 4.6736 -31.4452) (layer F.SilkS) (width 0.381))
  (fp_line (start 0 0) (end 79.99984 0) (layer F.SilkS) (width 0.381))
  (fp_line (start 79.99984 0) (end 79.99984 -35.99942) (layer F.SilkS) (width 0.381))
  (fp_line (start 79.99984 -35.99942) (end 0 -35.99942) (layer F.SilkS) (width 0.381))
  (fp_line (start 0 -35.99942) (end 0 0) (layer F.SilkS) (width 0.381))
  (pad 2 thru_hole circle (at 10.8204 -33.528) (size 1.69926 1.69926) (drill 0.8001) (layers *.Cu *.Mask F.SilkS))
  (pad 1 thru_hole circle (at 8.2804 -33.528) (size 1.69926 1.69926) (drill 0.8001) (layers *.Cu *.Mask F.SilkS))
  (pad 3 thru_hole circle (at 13.3604 -33.528) (size 1.69926 1.69926) (drill 0.8001) (layers *.Cu *.Mask F.SilkS))
  (pad 4 thru_hole circle (at 15.8496 -33.528) (size 1.69926 1.69926) (drill 0.8001) (layers *.Cu *.Mask F.SilkS))
  (pad 5 thru_hole circle (at 18.4404 -33.528) (size 1.69926 1.69926) (drill 0.8001) (layers *.Cu *.Mask F.SilkS))
  (pad 6 thru_hole circle (at 20.9804 -33.528) (size 1.69926 1.69926) (drill 0.8001) (layers *.Cu *.Mask F.SilkS))
  (pad 11 thru_hole circle (at 33.6296 -33.528) (size 1.69926 1.69926) (drill 0.8001) (layers *.Cu *.Mask F.SilkS))
  (pad 12 thru_hole circle (at 36.2204 -33.528) (size 1.69926 1.69926) (drill 0.8001) (layers *.Cu *.Mask F.SilkS))
  (pad 13 thru_hole circle (at 38.7604 -33.528) (size 1.69926 1.69926) (drill 0.8001) (layers *.Cu *.Mask F.SilkS))
  (pad 14 thru_hole circle (at 41.3004 -33.528) (size 1.69926 1.69926) (drill 0.8001) (layers *.Cu *.Mask F.SilkS))
  (pad 15 thru_hole circle (at 43.7896 -33.528) (size 1.69926 1.69926) (drill 0.8001) (layers *.Cu *.Mask F.SilkS))
  (pad 16 thru_hole circle (at 46.3804 -33.528) (size 1.69926 1.69926) (drill 0.8001) (layers *.Cu *.Mask F.SilkS))
)
